%!PS-Adobe-3.0 EPSF-3.0 
%%BoundingBox: 0 0 539 454
%%Pages: 0
%%Creator: LibreOffice 5.0
%%Title: none
%%CreationDate: none
%%LanguageLevel: 2
%%EndComments
%%BeginProlog
%%BeginResource: procset SDRes-Prolog 1.0 0
/b4_inc_state save def
/dict_count countdictstack def
/op_count count 1 sub def
userdict begin
0 setgray 0 setlinecap 1 setlinewidth 0 setlinejoin 10 setmiterlimit[] 0 setdash newpath
/languagelevel where {pop languagelevel 1 ne {false setstrokeadjust false setoverprint} if} if
/bdef {bind def} bind def
/c {setrgbcolor} bdef
/l {neg lineto} bdef
/rl {neg rlineto} bdef
/lc {setlinecap} bdef
/lj {setlinejoin} bdef
/lw {setlinewidth} bdef
/ml {setmiterlimit} bdef
/ld {setdash} bdef
/m {neg moveto} bdef
/ct {6 2 roll neg 6 2 roll neg 6 2 roll neg curveto} bdef
/r {rotate} bdef
/t {neg translate} bdef
/s {scale} bdef
/sw {show} bdef
/gs {gsave} bdef
/gr {grestore} bdef
/f {findfont dup length dict begin
{1 index /FID ne {def} {pop pop} ifelse} forall /Encoding ISOLatin1Encoding def
currentdict end /NFont exch definefont pop /NFont findfont} bdef
/p {closepath} bdef
/sf {scalefont setfont} bdef
/ef {eofill}bdef
/pc {closepath stroke}bdef
/ps {stroke}bdef
/pum {matrix currentmatrix}bdef
/pom {setmatrix}bdef
/bs {/aString exch def /nXOfs exch def /nWidth exch def currentpoint nXOfs 0 rmoveto pum nWidth aString stringwidth pop div 1 scale aString show pom moveto} bdef
%%EndResource
%%EndProlog
%%BeginSetup
%%EndSetup
%%Page: 1 1
%%BeginPageSetup
%%EndPageSetup
pum
0.02836 0.02837 s 
0 -16000 t
/tm matrix currentmatrix def
gs
tm setmatrix
-1118 -1143 t 
1 1 s 
1118 1143 m 20117 1143 l 20117 17142 l 1118 17142 l 1118 1143 l eoclip newpath
gs
1118 1143 m 20117 1143 l 20117 17142 l 1118 17142 l 1118 1143 l eoclip newpath
1.000 1.000 1.000 c 1118 1143 m  20117 1143 l  20117 17142 l  1118 17142 l 
1118 1143 l  p ef
0.703 0.703 0.003 c 15256 4800 m  15857 4800 16318 5146 16318 5599 ct 16318 6051 15857 6399 15256 6399 ct 
14655 6399 14194 6051 14194 5599 ct 14194 5146 14655 4800 15256 4800 ct p
14194 4800 m  14194 4800 l  p
16319 6401 m  16319 6401 l  p ef
0 lw 1 lj 0.503 0.503 0.503 c 15255 4799 m  15857 4799 16317 5146 16317 5598 ct 
16317 6051 15857 6398 15255 6398 ct 14654 6398 14194 6051 14194 5598 ct 14194 5146 14654 4799 15255 4799 ct 
pc
14194 4799 m  14194 4799 l  pc
16318 6401 m  16318 6401 l  pc
pum
14678 5767 t
0.003 0.003 0.003 c 78 0 m  1 -251 l  45 -251 l  85 -106 l  100 -52 l  101 -55 105 -72 113 -104 ct 
153 -251 l  196 -251 l  234 -105 l  246 -57 l  261 -106 l  304 -251 l 
345 -251 l  267 0 l  223 0 l  183 -150 l  173 -193 l  122 0 l  78 0 l 
p ef
357 -125 m  357 -171 370 -206 396 -228 ct 417 -247 444 -256 474 -256 ct 509 -256 537 -245 559 -222 ct 
581 -200 592 -168 592 -129 ct 592 -96 587 -71 577 -52 ct 568 -34 553 -20 535 -9 ct 
517 1 496 6 474 6 ct 439 6 411 -5 389 -28 ct 368 -50 357 -83 357 -125 ct p
401 -125 m  401 -93 408 -69 422 -53 ct 436 -37 453 -29 474 -29 ct 496 -29 513 -37 527 -53 ct 
541 -69 548 -94 548 -126 ct 548 -157 541 -181 527 -197 ct 513 -213 495 -221 474 -221 ct 
453 -221 436 -213 422 -197 ct 408 -181 401 -157 401 -125 ct p ef
637 0 m  637 -250 l  676 -250 l  676 -212 l  685 -230 694 -242 703 -248 ct 
711 -253 720 -256 730 -256 ct 744 -256 759 -251 773 -242 ct 759 -203 l  748 -209 738 -212 728 -212 ct 
718 -212 710 -209 703 -204 ct 695 -198 690 -190 687 -181 ct 682 -165 680 -149 680 -131 ct 
680 0 l  637 0 l  p ef
794 0 m  794 -250 l  832 -250 l  832 -215 l  840 -227 850 -237 863 -245 ct 
876 -252 891 -256 908 -256 ct 926 -256 942 -252 953 -244 ct 965 -237 974 -226 979 -212 ct 
998 -241 1024 -256 1056 -256 ct 1081 -256 1100 -249 1113 -235 ct 1127 -222 1133 -200 1133 -172 ct 
1133 0 l  1091 0 l  1091 -158 l  1091 -175 1090 -187 1087 -194 ct 1084 -202 1079 -208 1072 -212 ct 
1065 -217 1056 -219 1046 -219 ct 1029 -219 1014 -213 1003 -202 ct 991 -190 985 -171 985 -145 ct 
985 0 l  943 0 l  943 -163 l  943 -182 939 -196 932 -205 ct 925 -215 914 -219 898 -219 ct 
886 -219 875 -216 865 -210 ct 855 -204 848 -194 843 -182 ct 839 -170 836 -153 836 -130 ct 
836 0 l  794 0 l  p ef
pom
1.000 1.000 0.402 c 15256 7771 m  15890 7771 16374 8118 16374 8570 ct 16374 9023 15890 9370 15256 9370 ct 
14622 9370 14138 9023 14138 8570 ct 14138 8118 14622 7771 15256 7771 ct p
14138 7771 m  14138 7771 l  p
16375 9373 m  16375 9373 l  p ef
0.503 0.503 0.503 c 15255 7771 m  15889 7771 16373 8117 16373 8570 ct 16373 9022 15889 9370 15255 9370 ct 
14622 9370 14138 9022 14138 8570 ct 14138 8117 14622 7771 15255 7771 ct pc
14138 7771 m  14138 7771 l  pc
16374 9372 m  16374 9372 l  pc
pum
14859 8738 t
0.003 0.003 0.003 c 203 -80 m  247 -75 l  240 -49 227 -29 209 -15 ct 190 -1 166 6 137 6 ct 
100 6 71 -5 50 -28 ct 28 -50 18 -82 18 -123 ct 18 -165 29 -198 50 -221 ct 72 -244 100 -256 135 -256 ct 
168 -256 196 -244 217 -222 ct 238 -199 249 -167 249 -125 ct 249 -123 249 -119 248 -114 ct 
62 -114 l  63 -87 71 -65 85 -51 ct 99 -36 116 -29 137 -29 ct 153 -29 166 -33 177 -41 ct 
188 -49 197 -62 203 -80 ct p
64 -149 m  204 -149 l  202 -170 197 -186 188 -196 ct 174 -213 157 -221 135 -221 ct 
116 -221 99 -214 86 -201 ct 73 -188 65 -171 64 -149 ct p ef
289 21 m  330 27 l  332 40 337 49 345 55 ct 355 63 370 67 388 67 ct 408 67 423 63 433 55 ct 
444 47 451 36 455 22 ct 457 13 458 -5 458 -33 ct 440 -11 416 0 389 0 ct 354 0 328 -12 309 -37 ct 
290 -62 281 -92 281 -127 ct 281 -150 285 -172 294 -193 ct 302 -213 315 -228 331 -239 ct 
348 -251 367 -256 389 -256 ct 419 -256 443 -244 462 -220 ct 462 -250 l  501 -250 l 
501 -34 l  501 5 497 33 489 49 ct 481 66 469 78 452 88 ct 434 97 413 102 388 102 ct 
358 102 334 95 316 82 ct 297 68 288 48 289 21 ct p
324 -130 m  324 -97 331 -73 344 -58 ct 357 -43 373 -35 393 -35 ct 412 -35 429 -43 442 -58 ct 
455 -73 462 -96 462 -128 ct 462 -159 455 -182 441 -198 ct 428 -213 411 -221 392 -221 ct 
373 -221 357 -213 344 -198 ct 331 -183 324 -160 324 -130 ct p ef
554 21 m  595 27 l  597 40 602 49 610 55 ct 620 63 635 67 653 67 ct 673 67 688 63 698 55 ct 
709 47 716 36 720 22 ct 722 13 723 -5 723 -33 ct 705 -11 681 0 654 0 ct 619 0 593 -12 574 -37 ct 
555 -62 546 -92 546 -127 ct 546 -150 550 -172 559 -193 ct 567 -213 580 -228 596 -239 ct 
613 -251 632 -256 654 -256 ct 684 -256 708 -244 727 -220 ct 727 -250 l  766 -250 l 
766 -34 l  766 5 762 33 754 49 ct 746 66 734 78 717 88 ct 699 97 678 102 653 102 ct 
623 102 599 95 581 82 ct 562 68 553 48 554 21 ct p
589 -130 m  589 -97 596 -73 609 -58 ct 622 -43 638 -35 658 -35 ct 677 -35 694 -43 707 -58 ct 
720 -73 727 -96 727 -128 ct 727 -159 720 -182 706 -198 ct 693 -213 676 -221 657 -221 ct 
638 -221 622 -213 609 -198 ct 596 -183 589 -160 589 -130 ct p ef
pom
1 lw 15256 6400 m  15256 7280 l  ps
15256 7771 m  15424 7257 l  15088 7257 l  15256 7771 l  p ef
pum
12275 6979 t
pom
pum
13283 7526 t
pom
pum
13416 7526 t
32 0 m  32 -346 l  75 -346 l  75 -149 l  175 -250 l  230 -250 l  134 -157 l 
240 0 l  187 0 l  104 -128 l  75 -99 l  75 0 l  32 0 l  p ef
440 -80 m  484 -75 l  477 -49 464 -29 446 -15 ct 427 -1 403 6 374 6 ct 337 6 308 -5 287 -28 ct 
265 -50 255 -82 255 -123 ct 255 -165 266 -198 287 -221 ct 309 -244 337 -256 372 -256 ct 
405 -256 433 -244 454 -222 ct 475 -199 486 -167 486 -125 ct 486 -123 486 -119 485 -114 ct 
299 -114 l  300 -87 308 -65 322 -51 ct 336 -36 353 -29 374 -29 ct 390 -29 403 -33 414 -41 ct 
425 -49 434 -62 440 -80 ct p
301 -149 m  441 -149 l  439 -170 434 -186 425 -196 ct 411 -213 394 -221 372 -221 ct 
353 -221 336 -214 323 -201 ct 310 -188 302 -171 301 -149 ct p ef
495 96 m  495 65 l  776 65 l  776 96 l  495 96 l  p ef
791 21 m  832 27 l  834 40 839 49 847 55 ct 857 63 872 67 890 67 ct 910 67 925 63 935 55 ct 
946 47 953 36 957 22 ct 959 13 960 -5 960 -33 ct 942 -11 918 0 891 0 ct 856 0 830 -12 811 -37 ct 
792 -62 783 -92 783 -127 ct 783 -150 787 -172 796 -193 ct 804 -213 817 -228 833 -239 ct 
850 -251 869 -256 891 -256 ct 921 -256 945 -244 964 -220 ct 964 -250 l  1003 -250 l 
1003 -34 l  1003 5 999 33 991 49 ct 983 66 971 78 954 88 ct 936 97 915 102 890 102 ct 
860 102 836 95 818 82 ct 799 68 790 48 791 21 ct p
826 -130 m  826 -97 833 -73 846 -58 ct 859 -43 875 -35 895 -35 ct 914 -35 931 -43 944 -58 ct 
957 -73 964 -96 964 -128 ct 964 -159 957 -182 943 -198 ct 930 -213 913 -221 894 -221 ct 
875 -221 859 -213 846 -198 ct 833 -183 826 -160 826 -130 ct p ef
1235 -80 m  1279 -75 l  1272 -49 1259 -29 1241 -15 ct 1222 -1 1198 6 1169 6 ct 
1132 6 1103 -5 1082 -28 ct 1060 -50 1050 -82 1050 -123 ct 1050 -165 1061 -198 1082 -221 ct 
1104 -244 1132 -256 1167 -256 ct 1200 -256 1228 -244 1249 -222 ct 1270 -199 1281 -167 1281 -125 ct 
1281 -123 1281 -119 1280 -114 ct 1094 -114 l  1095 -87 1103 -65 1117 -51 ct 
1131 -36 1148 -29 1169 -29 ct 1185 -29 1198 -33 1209 -41 ct 1220 -49 1229 -62 1235 -80 ct 
p
1096 -149 m  1236 -149 l  1234 -170 1229 -186 1220 -196 ct 1206 -213 1189 -221 1167 -221 ct 
1148 -221 1131 -214 1118 -201 ct 1105 -188 1097 -171 1096 -149 ct p ef
1328 0 m  1328 -250 l  1366 -250 l  1366 -215 l  1384 -242 1411 -256 1446 -256 ct 
1461 -256 1475 -253 1487 -248 ct 1500 -242 1510 -235 1516 -227 ct 1522 -218 1527 -207 1529 -195 ct 
1531 -187 1531 -174 1531 -154 ct 1531 0 l  1489 0 l  1489 -152 l  1489 -170 1487 -182 1484 -191 ct 
1481 -200 1475 -206 1466 -212 ct 1458 -217 1448 -219 1437 -219 ct 1419 -219 1403 -213 1390 -202 ct 
1377 -191 1370 -169 1370 -137 ct 1370 0 l  1328 0 l  p ef
pom
pum
14130 8072 t
pom
0.902 0.902 0.300 c 15256 10571 m  15890 10571 16374 10918 16374 11370 ct 
16374 11823 15890 12170 15256 12170 ct 14622 12170 14138 11823 14138 11370 ct 
14138 10918 14622 10571 15256 10571 ct p
14138 10571 m  14138 10571 l  p
16375 12173 m  16375 12173 l  p ef
0 lw 0.503 0.503 0.503 c 15255 10571 m  15889 10571 16373 10917 16373 11370 ct 
16373 11822 15889 12170 15255 12170 ct 14622 12170 14138 11822 14138 11370 ct 
14138 10917 14622 10571 15255 10571 ct pc
14138 10571 m  14138 10571 l  pc
16374 12172 m  16374 12172 l  pc
pum
14610 11538 t
0.003 0.003 0.003 c 31 0 m  31 -346 l  73 -346 l  73 0 l  31 0 l  p ef
299 -31 m  284 -17 268 -8 254 -2 ct 239 3 224 6 207 6 ct 180 6 158 -1 144 -14 ct 
129 -28 121 -45 121 -66 ct 121 -78 124 -89 130 -99 ct 135 -110 143 -118 152 -124 ct 
161 -130 171 -135 182 -138 ct 191 -140 203 -142 220 -144 ct 254 -148 280 -153 296 -159 ct 
296 -165 296 -168 296 -170 ct 296 -187 292 -199 284 -206 ct 273 -216 257 -221 236 -221 ct 
216 -221 201 -217 191 -210 ct 182 -203 175 -191 170 -173 ct 129 -179 l  133 -197 139 -211 147 -222 ct 
156 -233 169 -241 185 -247 ct 201 -253 220 -256 242 -256 ct 263 -256 280 -253 294 -248 ct 
307 -243 317 -237 323 -229 ct 330 -222 334 -212 337 -201 ct 338 -193 339 -180 339 -161 ct 
339 -105 l  339 -65 340 -40 341 -30 ct 343 -19 347 -9 352 0 ct 308 0 l  303 -8 301 -19 299 -31 ct 
p
296 -125 m  280 -119 257 -114 226 -109 ct 209 -107 197 -104 189 -101 ct 182 -98 177 -93 173 -87 ct 
169 -81 167 -74 167 -67 ct 167 -56 171 -46 180 -39 ct 188 -31 201 -27 217 -27 ct 
234 -27 248 -31 261 -38 ct 274 -45 283 -55 289 -67 ct 293 -77 296 -91 296 -110 ct 
296 -125 l  p ef
400 0 m  400 -250 l  439 -250 l  439 -212 l  448 -230 457 -242 466 -248 ct 
474 -253 483 -256 493 -256 ct 507 -256 522 -251 536 -242 ct 522 -203 l  511 -209 501 -212 491 -212 ct 
481 -212 473 -209 466 -204 ct 458 -198 453 -190 450 -181 ct 445 -165 443 -149 443 -131 ct 
443 0 l  400 0 l  p ef
626 0 m  531 -251 l  576 -251 l  630 -100 l  636 -84 641 -67 646 -50 ct 650 -63 655 -79 662 -98 ct 
717 -251 l  761 -251 l  666 0 l  626 0 l  p ef
957 -31 m  942 -17 926 -8 912 -2 ct 897 3 882 6 865 6 ct 838 6 816 -1 802 -14 ct 
787 -28 779 -45 779 -66 ct 779 -78 782 -89 788 -99 ct 793 -110 801 -118 810 -124 ct 
819 -130 829 -135 840 -138 ct 849 -140 861 -142 878 -144 ct 912 -148 938 -153 954 -159 ct 
954 -165 954 -168 954 -170 ct 954 -187 950 -199 942 -206 ct 931 -216 915 -221 894 -221 ct 
874 -221 859 -217 849 -210 ct 840 -203 833 -191 828 -173 ct 787 -179 l  791 -197 797 -211 805 -222 ct 
814 -233 827 -241 843 -247 ct 859 -253 878 -256 900 -256 ct 921 -256 938 -253 952 -248 ct 
965 -243 975 -237 981 -229 ct 988 -222 992 -212 995 -201 ct 996 -193 997 -180 997 -161 ct 
997 -105 l  997 -65 998 -40 999 -30 ct 1001 -19 1005 -9 1010 0 ct 966 0 l  961 -8 959 -19 957 -31 ct 
p
954 -125 m  938 -119 915 -114 884 -109 ct 867 -107 855 -104 847 -101 ct 840 -98 835 -93 831 -87 ct 
827 -81 825 -74 825 -67 ct 825 -56 829 -46 838 -39 ct 846 -31 859 -27 875 -27 ct 
892 -27 906 -31 919 -38 ct 932 -45 941 -55 947 -67 ct 951 -77 954 -91 954 -110 ct 
954 -125 l  p ef
1230 -80 m  1274 -75 l  1267 -49 1254 -29 1236 -15 ct 1217 -1 1193 6 1164 6 ct 
1127 6 1098 -5 1077 -28 ct 1055 -50 1045 -82 1045 -123 ct 1045 -165 1056 -198 1077 -221 ct 
1099 -244 1127 -256 1162 -256 ct 1195 -256 1223 -244 1244 -222 ct 1265 -199 1276 -167 1276 -125 ct 
1276 -123 1276 -119 1275 -114 ct 1089 -114 l  1090 -87 1098 -65 1112 -51 ct 
1126 -36 1143 -29 1164 -29 ct 1180 -29 1193 -33 1204 -41 ct 1215 -49 1224 -62 1230 -80 ct 
p
1091 -149 m  1231 -149 l  1229 -170 1224 -186 1215 -196 ct 1201 -213 1184 -221 1162 -221 ct 
1143 -221 1126 -214 1113 -201 ct 1100 -188 1092 -171 1091 -149 ct p ef
pom
0.812 0.906 0.960 c 11344 12229 m  9947 12229 l  9947 10514 l  12741 10514 l 
12741 12229 l  11344 12229 l  p ef
0.503 0.503 0.503 c 11344 12228 m  9947 12228 l  9947 10514 l  12741 10514 l 
12741 12228 l  11344 12228 l  pc
pum
10384 11265 t
0.003 0.003 0.003 c 39 0 m  39 -346 l  84 -346 l  84 -204 l  264 -204 l  264 -346 l 
310 -346 l  310 0 l  264 0 l  264 -163 l  84 -163 l  84 0 l  39 0 l  p ef
537 0 m  537 -36 l  517 -8 491 6 458 6 ct 443 6 429 3 416 -2 ct 403 -8 394 -15 388 -24 ct 
381 -32 377 -43 374 -55 ct 373 -64 372 -77 372 -95 ct 372 -250 l  414 -250 l 
414 -111 l  414 -89 415 -74 417 -66 ct 420 -55 425 -46 434 -40 ct 443 -34 453 -31 466 -31 ct 
479 -31 491 -34 502 -40 ct 513 -47 521 -56 526 -67 ct 530 -78 533 -95 533 -116 ct 
533 -250 l  575 -250 l  575 0 l  537 0 l  p ef
638 0 m  638 -250 l  676 -250 l  676 -215 l  684 -227 694 -237 707 -245 ct 
720 -252 735 -256 752 -256 ct 770 -256 786 -252 797 -244 ct 809 -237 818 -226 823 -212 ct 
842 -241 868 -256 900 -256 ct 925 -256 944 -249 957 -235 ct 971 -222 977 -200 977 -172 ct 
977 0 l  935 0 l  935 -158 l  935 -175 934 -187 931 -194 ct 928 -202 923 -208 916 -212 ct 
909 -217 900 -219 890 -219 ct 873 -219 858 -213 847 -202 ct 835 -190 829 -171 829 -145 ct 
829 0 l  787 0 l  787 -163 l  787 -182 783 -196 776 -205 ct 769 -215 758 -219 742 -219 ct 
730 -219 719 -216 709 -210 ct 699 -204 692 -194 687 -182 ct 683 -170 680 -153 680 -130 ct 
680 0 l  638 0 l  p ef
1014 -125 m  1014 -171 1027 -206 1053 -228 ct 1074 -247 1101 -256 1131 -256 ct 
1166 -256 1194 -245 1216 -222 ct 1238 -200 1249 -168 1249 -129 ct 1249 -96 1244 -71 1234 -52 ct 
1225 -34 1210 -20 1192 -9 ct 1174 1 1153 6 1131 6 ct 1096 6 1068 -5 1046 -28 ct 
1025 -50 1014 -83 1014 -125 ct p
1058 -125 m  1058 -93 1065 -69 1079 -53 ct 1093 -37 1110 -29 1131 -29 ct 1153 -29 1170 -37 1184 -53 ct 
1198 -69 1205 -94 1205 -126 ct 1205 -157 1198 -181 1184 -197 ct 1170 -213 1152 -221 1131 -221 ct 
1110 -221 1093 -213 1079 -197 ct 1065 -181 1058 -157 1058 -125 ct p ef
1294 0 m  1294 -250 l  1333 -250 l  1333 -212 l  1342 -230 1351 -242 1360 -248 ct 
1368 -253 1377 -256 1387 -256 ct 1401 -256 1416 -251 1430 -242 ct 1416 -203 l 
1405 -209 1395 -212 1385 -212 ct 1375 -212 1367 -209 1360 -204 ct 1352 -198 1347 -190 1344 -181 ct 
1339 -165 1337 -149 1337 -131 ct 1337 0 l  1294 0 l  p ef
1614 -31 m  1599 -17 1583 -8 1569 -2 ct 1554 3 1539 6 1522 6 ct 1495 6 1473 -1 1459 -14 ct 
1444 -28 1436 -45 1436 -66 ct 1436 -78 1439 -89 1445 -99 ct 1450 -110 1458 -118 1467 -124 ct 
1476 -130 1486 -135 1497 -138 ct 1506 -140 1518 -142 1535 -144 ct 1569 -148 1595 -153 1611 -159 ct 
1611 -165 1611 -168 1611 -170 ct 1611 -187 1607 -199 1599 -206 ct 1588 -216 1572 -221 1551 -221 ct 
1531 -221 1516 -217 1506 -210 ct 1497 -203 1490 -191 1485 -173 ct 1444 -179 l 
1448 -197 1454 -211 1462 -222 ct 1471 -233 1484 -241 1500 -247 ct 1516 -253 1535 -256 1557 -256 ct 
1578 -256 1595 -253 1609 -248 ct 1622 -243 1632 -237 1638 -229 ct 1645 -222 1649 -212 1652 -201 ct 
1653 -193 1654 -180 1654 -161 ct 1654 -105 l  1654 -65 1655 -40 1656 -30 ct 
1658 -19 1662 -9 1667 0 ct 1623 0 l  1618 -8 1616 -19 1614 -31 ct p
1611 -125 m  1595 -119 1572 -114 1541 -109 ct 1524 -107 1512 -104 1504 -101 ct 
1497 -98 1492 -93 1488 -87 ct 1484 -81 1482 -74 1482 -67 ct 1482 -56 1486 -46 1495 -39 ct 
1503 -31 1516 -27 1532 -27 ct 1549 -27 1563 -31 1576 -38 ct 1589 -45 1598 -55 1604 -67 ct 
1608 -77 1611 -91 1611 -110 ct 1611 -125 l  p ef
1715 0 m  1715 -346 l  1757 -346 l  1757 0 l  1715 0 l  p ef
pom
pum
10276 11811 t
38 1 m  38 -345 l  191 -345 l  222 -345 246 -342 262 -336 ct 278 -330 290 -319 300 -303 ct 
310 -287 314 -270 314 -251 ct 314 -226 306 -206 291 -189 ct 275 -172 250 -161 217 -157 ct 
229 -151 238 -145 245 -140 ct 258 -127 271 -112 283 -94 ct 343 1 l  285 1 l 
239 -71 l  226 -92 215 -108 206 -119 ct 198 -130 190 -138 183 -142 ct 176 -147 169 -150 162 -151 ct 
157 -152 149 -153 137 -153 ct 84 -153 l  84 1 l  38 1 l  p
84 -193 m  182 -193 l  203 -193 219 -195 231 -199 ct 243 -203 252 -210 258 -220 ct 
264 -229 267 -240 267 -251 ct 267 -267 261 -281 249 -291 ct 238 -302 219 -307 193 -307 ct 
84 -307 l  84 -193 l  p ef
544 -80 m  588 -75 l  581 -49 568 -29 550 -15 ct 531 -1 507 6 478 6 ct 441 6 412 -5 391 -28 ct 
369 -50 359 -82 359 -123 ct 359 -165 370 -198 391 -221 ct 413 -244 441 -256 476 -256 ct 
509 -256 537 -244 558 -222 ct 579 -199 590 -167 590 -125 ct 590 -123 590 -119 589 -114 ct 
403 -114 l  404 -87 412 -65 426 -51 ct 440 -36 457 -29 478 -29 ct 494 -29 507 -33 518 -41 ct 
529 -49 538 -62 544 -80 ct p
405 -149 m  545 -149 l  543 -170 538 -186 529 -196 ct 515 -213 498 -221 476 -221 ct 
457 -221 440 -214 427 -201 ct 414 -188 406 -171 405 -149 ct p ef
621 -74 m  663 -81 l  665 -64 672 -51 683 -42 ct 693 -33 708 -29 728 -29 ct 
747 -29 762 -33 771 -41 ct 781 -49 785 -58 785 -69 ct 785 -78 781 -86 773 -91 ct 
767 -95 752 -100 729 -106 ct 698 -114 677 -120 665 -126 ct 653 -132 643 -140 637 -150 ct 
631 -160 628 -171 628 -184 ct 628 -195 630 -205 636 -215 ct 641 -224 648 -232 656 -238 ct 
663 -243 672 -247 683 -251 ct 695 -254 707 -256 720 -256 ct 740 -256 757 -253 772 -247 ct 
787 -242 798 -234 805 -224 ct 812 -215 817 -202 819 -186 ct 778 -180 l  776 -193 771 -203 762 -210 ct 
752 -217 740 -221 723 -221 ct 704 -221 690 -218 681 -211 ct 673 -205 669 -197 669 -189 ct 
669 -183 671 -178 674 -174 ct 678 -169 683 -165 690 -162 ct 695 -161 707 -157 728 -152 ct 
758 -144 779 -137 791 -132 ct 803 -127 812 -119 819 -110 ct 826 -100 829 -88 829 -73 ct 
829 -59 825 -46 816 -33 ct 808 -21 796 -11 781 -4 ct 765 3 748 6 728 6 ct 695 6 671 -1 654 -14 ct 
636 -28 626 -48 621 -74 ct p ef
875 96 m  875 -250 l  914 -250 l  914 -218 l  923 -231 933 -240 944 -246 ct 
956 -253 970 -256 986 -256 ct 1008 -256 1026 -251 1043 -239 ct 1059 -228 1071 -213 1080 -193 ct 
1088 -173 1092 -151 1092 -127 ct 1092 -101 1088 -78 1078 -58 ct 1069 -37 1056 -21 1038 -11 ct 
1021 0 1002 6 983 6 ct 969 6 956 3 945 -3 ct 934 -9 925 -17 917 -26 ct 917 96 l 
875 96 l  p
913 -124 m  913 -91 920 -68 933 -52 ct 946 -37 962 -29 980 -29 ct 999 -29 1015 -37 1029 -53 ct 
1042 -69 1049 -94 1049 -127 ct 1049 -159 1042 -183 1029 -199 ct 1016 -215 1000 -223 982 -223 ct 
964 -223 948 -214 934 -197 ct 920 -180 913 -156 913 -124 ct p ef
1124 -125 m  1124 -171 1137 -206 1163 -228 ct 1184 -247 1211 -256 1241 -256 ct 
1276 -256 1304 -245 1326 -222 ct 1348 -200 1359 -168 1359 -129 ct 1359 -96 1354 -71 1344 -52 ct 
1335 -34 1320 -20 1302 -9 ct 1284 1 1263 6 1241 6 ct 1206 6 1178 -5 1156 -28 ct 
1135 -50 1124 -83 1124 -125 ct p
1168 -125 m  1168 -93 1175 -69 1189 -53 ct 1203 -37 1220 -29 1241 -29 ct 1263 -29 1280 -37 1294 -53 ct 
1308 -69 1315 -94 1315 -126 ct 1315 -157 1308 -181 1294 -197 ct 1280 -213 1262 -221 1241 -221 ct 
1220 -221 1203 -213 1189 -197 ct 1175 -181 1168 -157 1168 -125 ct p ef
1404 0 m  1404 -250 l  1442 -250 l  1442 -215 l  1460 -242 1487 -256 1522 -256 ct 
1537 -256 1551 -253 1563 -248 ct 1576 -242 1586 -235 1592 -227 ct 1598 -218 1603 -207 1605 -195 ct 
1607 -187 1607 -174 1607 -154 ct 1607 0 l  1565 0 l  1565 -152 l  1565 -170 1563 -182 1560 -191 ct 
1557 -200 1551 -206 1542 -212 ct 1534 -217 1524 -219 1513 -219 ct 1495 -219 1479 -213 1466 -202 ct 
1453 -191 1446 -169 1446 -137 ct 1446 0 l  1404 0 l  p ef
1652 -74 m  1694 -81 l  1696 -64 1703 -51 1714 -42 ct 1724 -33 1739 -29 1759 -29 ct 
1778 -29 1793 -33 1802 -41 ct 1812 -49 1816 -58 1816 -69 ct 1816 -78 1812 -86 1804 -91 ct 
1798 -95 1783 -100 1760 -106 ct 1729 -114 1708 -120 1696 -126 ct 1684 -132 1674 -140 1668 -150 ct 
1662 -160 1659 -171 1659 -184 ct 1659 -195 1661 -205 1667 -215 ct 1672 -224 1679 -232 1687 -238 ct 
1694 -243 1703 -247 1714 -251 ct 1726 -254 1738 -256 1751 -256 ct 1771 -256 1788 -253 1803 -247 ct 
1818 -242 1829 -234 1836 -224 ct 1843 -215 1848 -202 1850 -186 ct 1809 -180 l 
1807 -193 1802 -203 1793 -210 ct 1783 -217 1771 -221 1754 -221 ct 1735 -221 1721 -218 1712 -211 ct 
1704 -205 1700 -197 1700 -189 ct 1700 -183 1702 -178 1705 -174 ct 1709 -169 1714 -165 1721 -162 ct 
1726 -161 1738 -157 1759 -152 ct 1789 -144 1810 -137 1822 -132 ct 1834 -127 1843 -119 1850 -110 ct 
1857 -100 1860 -88 1860 -73 ct 1860 -59 1856 -46 1847 -33 ct 1839 -21 1827 -11 1812 -4 ct 
1796 3 1779 6 1759 6 ct 1726 6 1702 -1 1685 -14 ct 1667 -28 1657 -48 1652 -74 ct 
p ef
2076 -80 m  2120 -75 l  2113 -49 2100 -29 2082 -15 ct 2063 -1 2039 6 2010 6 ct 
1973 6 1944 -5 1923 -28 ct 1901 -50 1891 -82 1891 -123 ct 1891 -165 1902 -198 1923 -221 ct 
1945 -244 1973 -256 2008 -256 ct 2041 -256 2069 -244 2090 -222 ct 2111 -199 2122 -167 2122 -125 ct 
2122 -123 2122 -119 2121 -114 ct 1935 -114 l  1936 -87 1944 -65 1958 -51 ct 
1972 -36 1989 -29 2010 -29 ct 2026 -29 2039 -33 2050 -41 ct 2061 -49 2070 -62 2076 -80 ct 
p
1937 -149 m  2077 -149 l  2075 -170 2070 -186 2061 -196 ct 2047 -213 2030 -221 2008 -221 ct 
1989 -221 1972 -214 1959 -201 ct 1946 -188 1938 -171 1937 -149 ct p ef
pom
1 lw 15256 4800 m  15256 4742 l  ps
15256 4683 m  15256 4625 l  ps
15256 4567 m  15256 4509 l  ps
15256 4450 m  15256 4392 l  ps
15256 4334 m  15256 4275 l  ps
15256 4217 m  15256 4159 l  ps
15256 4101 m  15256 4042 l  ps
15256 3984 m  15256 3926 l  ps
15256 3867 m  15256 3809 l  ps
15256 3751 m  15256 3693 l  ps
15256 3634 m  15256 3576 l  ps
15256 3518 m  15256 3459 l  ps
15256 3401 m  15256 3343 l  ps
15256 3285 m  15256 3226 l  ps
15256 3168 m  15256 3110 l  ps
15256 3051 m  15256 2993 l  ps
15256 2935 m  15256 2877 l  ps
15256 2818 m  15256 2760 l  ps
15256 2702 m  15256 2643 l  ps
15256 2585 m  15256 2527 l  ps
15239 2486 m  15182 2486 l  ps
15125 2486 m  15068 2486 l  ps
15011 2486 m  14954 2486 l  ps
14897 2486 m  14840 2486 l  ps
14783 2486 m  14726 2486 l  ps
14669 2486 m  14612 2486 l  ps
14555 2486 m  14498 2486 l  ps
14441 2486 m  14384 2486 l  ps
14327 2486 m  14270 2486 l  ps
14213 2486 m  14156 2486 l  ps
14099 2486 m  14042 2486 l  ps
13985 2486 m  13928 2486 l  ps
13871 2486 m  13814 2486 l  ps
13757 2486 m  13700 2486 l  ps
13643 2486 m  13586 2486 l  ps
13529 2486 m  13472 2486 l  ps
13415 2486 m  13358 2486 l  ps
13301 2486 m  13244 2486 l  ps
13187 2486 m  13130 2486 l  ps
13073 2486 m  13016 2486 l  ps
12959 2486 m  12902 2486 l  ps
12845 2486 m  12841 2486 l  ps
12629 2434 m  12629 2314 l  12294 2486 l  12629 2657 l  12629 2536 l  12863 2657 l 
12863 2314 l  12629 2434 l  p ef
pum
12385 -561 t
pom
pum
12980 3264 t
pom
pum
10042 4357 t
pom
pum
15474 4357 t
32 0 m  32 -346 l  75 -346 l  75 -149 l  175 -250 l  230 -250 l  134 -157 l 
240 0 l  187 0 l  104 -128 l  75 -99 l  75 0 l  32 0 l  p ef
315 0 m  238 -251 l  282 -251 l  322 -106 l  337 -52 l  338 -55 342 -72 350 -104 ct 
390 -251 l  433 -251 l  471 -105 l  483 -57 l  498 -106 l  541 -251 l 
582 -251 l  504 0 l  460 0 l  420 -150 l  410 -193 l  359 0 l  315 0 l 
p ef
570 96 m  570 65 l  851 65 l  851 96 l  570 96 l  p ef
1037 1 m  1037 -31 l  1021 -6 998 6 967 6 ct 947 6 929 0 912 -11 ct 895 -22 883 -37 873 -57 ct 
864 -76 860 -99 860 -125 ct 860 -150 864 -172 872 -193 ct 880 -213 893 -229 910 -240 ct 
926 -251 945 -256 965 -256 ct 981 -256 994 -253 1006 -246 ct 1018 -240 1027 -232 1035 -222 ct 
1035 -345 l  1077 -345 l  1077 1 l  1037 1 l  p
903 -125 m  903 -93 910 -69 923 -53 ct 937 -37 953 -29 971 -29 ct 990 -29 1006 -36 1019 -52 ct 
1032 -67 1038 -90 1038 -121 ct 1038 -156 1031 -181 1018 -197 ct 1005 -213 989 -221 969 -221 ct 
951 -221 935 -213 922 -198 ct 909 -182 903 -158 903 -125 ct p ef
1311 -80 m  1355 -75 l  1348 -49 1335 -29 1317 -15 ct 1298 -1 1274 6 1245 6 ct 
1208 6 1179 -5 1158 -28 ct 1136 -50 1126 -82 1126 -123 ct 1126 -165 1137 -198 1158 -221 ct 
1180 -244 1208 -256 1243 -256 ct 1276 -256 1304 -244 1325 -222 ct 1346 -199 1357 -167 1357 -125 ct 
1357 -123 1357 -119 1356 -114 ct 1170 -114 l  1171 -87 1179 -65 1193 -51 ct 
1207 -36 1224 -29 1245 -29 ct 1261 -29 1274 -33 1285 -41 ct 1296 -49 1305 -62 1311 -80 ct 
p
1172 -149 m  1312 -149 l  1310 -170 1305 -186 1296 -196 ct 1282 -213 1265 -221 1243 -221 ct 
1224 -221 1207 -214 1194 -201 ct 1181 -188 1173 -171 1172 -149 ct p ef
1567 -31 m  1552 -17 1536 -8 1522 -2 ct 1507 3 1492 6 1475 6 ct 1448 6 1426 -1 1412 -14 ct 
1397 -28 1389 -45 1389 -66 ct 1389 -78 1392 -89 1398 -99 ct 1403 -110 1411 -118 1420 -124 ct 
1429 -130 1439 -135 1450 -138 ct 1459 -140 1471 -142 1488 -144 ct 1522 -148 1548 -153 1564 -159 ct 
1564 -165 1564 -168 1564 -170 ct 1564 -187 1560 -199 1552 -206 ct 1541 -216 1525 -221 1504 -221 ct 
1484 -221 1469 -217 1459 -210 ct 1450 -203 1443 -191 1438 -173 ct 1397 -179 l 
1401 -197 1407 -211 1415 -222 ct 1424 -233 1437 -241 1453 -247 ct 1469 -253 1488 -256 1510 -256 ct 
1531 -256 1548 -253 1562 -248 ct 1575 -243 1585 -237 1591 -229 ct 1598 -222 1602 -212 1605 -201 ct 
1606 -193 1607 -180 1607 -161 ct 1607 -105 l  1607 -65 1608 -40 1609 -30 ct 
1611 -19 1615 -9 1620 0 ct 1576 0 l  1571 -8 1569 -19 1567 -31 ct p
1564 -125 m  1548 -119 1525 -114 1494 -109 ct 1477 -107 1465 -104 1457 -101 ct 
1450 -98 1445 -93 1441 -87 ct 1437 -81 1435 -74 1435 -67 ct 1435 -56 1439 -46 1448 -39 ct 
1456 -31 1469 -27 1485 -27 ct 1502 -27 1516 -31 1529 -38 ct 1542 -45 1551 -55 1557 -67 ct 
1561 -77 1564 -91 1564 -110 ct 1564 -125 l  p ef
1762 -38 m  1768 -1 l  1756 2 1745 3 1736 3 ct 1720 3 1708 1 1700 -4 ct 1691 -9 1685 -16 1682 -24 ct 
1678 -32 1677 -48 1677 -74 ct 1677 -218 l  1645 -218 l  1645 -251 l  1677 -251 l 
1677 -313 l  1719 -338 l  1719 -251 l  1762 -251 l  1762 -218 l  1719 -218 l 
1719 -71 l  1719 -59 1720 -51 1721 -48 ct 1723 -44 1725 -42 1728 -40 ct 1732 -38 1737 -37 1743 -37 ct 
1748 -37 1754 -37 1762 -38 ct p ef
1801 0 m  1801 -346 l  1843 -346 l  1843 -222 l  1863 -245 1888 -256 1918 -256 ct 
1937 -256 1953 -252 1967 -245 ct 1980 -238 1990 -228 1996 -215 ct 2002 -202 2005 -183 2005 -159 ct 
2005 0 l  1962 0 l  1962 -159 l  1962 -180 1958 -195 1949 -205 ct 1939 -215 1926 -219 1910 -219 ct 
1897 -219 1885 -216 1874 -210 ct 1863 -203 1855 -194 1850 -183 ct 1846 -172 1843 -157 1843 -137 ct 
1843 0 l  1801 0 l  p ef
pom
1.000 0.402 0.203 c 18062 7656 m  18664 7656 19124 8002 19124 8455 ct 19124 8907 18664 9255 18062 9255 ct 
17461 9255 17001 8907 17001 8455 ct 17001 8002 17461 7656 18062 7656 ct p
17001 7656 m  17001 7656 l  p
19125 9257 m  19125 9257 l  p ef
0 lw 0.503 0.503 0.503 c 18062 7655 m  18663 7655 19124 8002 19124 8454 ct 
19124 8907 18663 9254 18062 9254 ct 17461 9254 17000 8907 17000 8454 ct 17000 8002 17461 7655 18062 7655 ct 
pc
17000 7655 m  17000 7655 l  pc
19125 9257 m  19125 9257 l  pc
pum
17546 8623 t
0.003 0.003 0.003 c 194 1 m  194 -31 l  178 -6 155 6 124 6 ct 104 6 86 0 69 -11 ct 
52 -22 40 -37 30 -57 ct 21 -76 17 -99 17 -125 ct 17 -150 21 -172 29 -193 ct 37 -213 50 -229 67 -240 ct 
83 -251 102 -256 122 -256 ct 138 -256 151 -253 163 -246 ct 175 -240 184 -232 192 -222 ct 
192 -345 l  234 -345 l  234 1 l  194 1 l  p
60 -125 m  60 -93 67 -69 80 -53 ct 94 -37 110 -29 128 -29 ct 147 -29 163 -36 176 -52 ct 
189 -67 195 -90 195 -121 ct 195 -156 188 -181 175 -197 ct 162 -213 146 -221 126 -221 ct 
108 -221 92 -213 79 -198 ct 66 -182 60 -158 60 -125 ct p ef
468 -80 m  512 -75 l  505 -49 492 -29 474 -15 ct 455 -1 431 6 402 6 ct 365 6 336 -5 315 -28 ct 
293 -50 283 -82 283 -123 ct 283 -165 294 -198 315 -221 ct 337 -244 365 -256 400 -256 ct 
433 -256 461 -244 482 -222 ct 503 -199 514 -167 514 -125 ct 514 -123 514 -119 513 -114 ct 
327 -114 l  328 -87 336 -65 350 -51 ct 364 -36 381 -29 402 -29 ct 418 -29 431 -33 442 -41 ct 
453 -49 462 -62 468 -80 ct p
329 -149 m  469 -149 l  467 -170 462 -186 453 -196 ct 439 -213 422 -221 400 -221 ct 
381 -221 364 -214 351 -201 ct 338 -188 330 -171 329 -149 ct p ef
534 0 m  625 -130 l  540 -250 l  593 -250 l  632 -192 l  639 -180 645 -171 649 -164 ct 
656 -174 663 -183 668 -191 ct 711 -250 l  761 -250 l  675 -132 l  768 0 l 
716 0 l  664 -78 l  651 -99 l  585 0 l  534 0 l  p ef
962 -31 m  947 -17 931 -8 917 -2 ct 902 3 887 6 870 6 ct 843 6 821 -1 807 -14 ct 
792 -28 784 -45 784 -66 ct 784 -78 787 -89 793 -99 ct 798 -110 806 -118 815 -124 ct 
824 -130 834 -135 845 -138 ct 854 -140 866 -142 883 -144 ct 917 -148 943 -153 959 -159 ct 
959 -165 959 -168 959 -170 ct 959 -187 955 -199 947 -206 ct 936 -216 920 -221 899 -221 ct 
879 -221 864 -217 854 -210 ct 845 -203 838 -191 833 -173 ct 792 -179 l  796 -197 802 -211 810 -222 ct 
819 -233 832 -241 848 -247 ct 864 -253 883 -256 905 -256 ct 926 -256 943 -253 957 -248 ct 
970 -243 980 -237 986 -229 ct 993 -222 997 -212 1000 -201 ct 1001 -193 1002 -180 1002 -161 ct 
1002 -105 l  1002 -65 1003 -40 1004 -30 ct 1006 -19 1010 -9 1015 0 ct 971 0 l 
966 -8 964 -19 962 -31 ct p
959 -125 m  943 -119 920 -114 889 -109 ct 872 -107 860 -104 852 -101 ct 845 -98 840 -93 836 -87 ct 
832 -81 830 -74 830 -67 ct 830 -56 834 -46 843 -39 ct 851 -31 864 -27 880 -27 ct 
897 -27 911 -31 924 -38 ct 937 -45 946 -55 952 -67 ct 956 -77 959 -91 959 -110 ct 
959 -125 l  p ef
pom
[ 51 51 51 51 ] 0 ld
0.503 0.503 0.503 c 11344 1399 m  12295 2485 l  11344 3572 l  10394 2485 l 
11344 1399 l  11344 1399 l  pc
10394 1399 m  10394 1399 l  pc
12295 3572 m  12295 3572 l  pc
pum
10747 2653 t
0.003 0.003 0.003 c 194 1 m  194 -31 l  178 -6 155 6 124 6 ct 104 6 86 0 69 -11 ct 
52 -22 40 -37 30 -57 ct 21 -76 17 -99 17 -125 ct 17 -150 21 -172 29 -193 ct 37 -213 50 -229 67 -240 ct 
83 -251 102 -256 122 -256 ct 138 -256 151 -253 163 -246 ct 175 -240 184 -232 192 -222 ct 
192 -345 l  234 -345 l  234 1 l  194 1 l  p
60 -125 m  60 -93 67 -69 80 -53 ct 94 -37 110 -29 128 -29 ct 147 -29 163 -36 176 -52 ct 
189 -67 195 -90 195 -121 ct 195 -156 188 -181 175 -197 ct 162 -213 146 -221 126 -221 ct 
108 -221 92 -213 79 -198 ct 66 -182 60 -158 60 -125 ct p ef
468 -80 m  512 -75 l  505 -49 492 -29 474 -15 ct 455 -1 431 6 402 6 ct 365 6 336 -5 315 -28 ct 
293 -50 283 -82 283 -123 ct 283 -165 294 -198 315 -221 ct 337 -244 365 -256 400 -256 ct 
433 -256 461 -244 482 -222 ct 503 -199 514 -167 514 -125 ct 514 -123 514 -119 513 -114 ct 
327 -114 l  328 -87 336 -65 350 -51 ct 364 -36 381 -29 402 -29 ct 418 -29 431 -33 442 -41 ct 
453 -49 462 -62 468 -80 ct p
329 -149 m  469 -149 l  467 -170 462 -186 453 -196 ct 439 -213 422 -221 400 -221 ct 
381 -221 364 -214 351 -201 ct 338 -188 330 -171 329 -149 ct p ef
725 -31 m  710 -17 694 -8 680 -2 ct 665 3 650 6 633 6 ct 606 6 584 -1 570 -14 ct 
555 -28 547 -45 547 -66 ct 547 -78 550 -89 556 -99 ct 561 -110 569 -118 578 -124 ct 
587 -130 597 -135 608 -138 ct 617 -140 629 -142 646 -144 ct 680 -148 706 -153 722 -159 ct 
722 -165 722 -168 722 -170 ct 722 -187 718 -199 710 -206 ct 699 -216 683 -221 662 -221 ct 
642 -221 627 -217 617 -210 ct 608 -203 601 -191 596 -173 ct 555 -179 l  559 -197 565 -211 573 -222 ct 
582 -233 595 -241 611 -247 ct 627 -253 646 -256 668 -256 ct 689 -256 706 -253 720 -248 ct 
733 -243 743 -237 749 -229 ct 756 -222 760 -212 763 -201 ct 764 -193 765 -180 765 -161 ct 
765 -105 l  765 -65 766 -40 767 -30 ct 769 -19 773 -9 778 0 ct 734 0 l  729 -8 727 -19 725 -31 ct 
p
722 -125 m  706 -119 683 -114 652 -109 ct 635 -107 623 -104 615 -101 ct 608 -98 603 -93 599 -87 ct 
595 -81 593 -74 593 -67 ct 593 -56 597 -46 606 -39 ct 614 -31 627 -27 643 -27 ct 
660 -27 674 -31 687 -38 ct 700 -45 709 -55 715 -67 ct 719 -77 722 -91 722 -110 ct 
722 -125 l  p ef
920 -38 m  926 -1 l  914 2 903 3 894 3 ct 878 3 866 1 858 -4 ct 849 -9 843 -16 840 -24 ct 
836 -32 835 -48 835 -74 ct 835 -218 l  803 -218 l  803 -251 l  835 -251 l 
835 -313 l  877 -338 l  877 -251 l  920 -251 l  920 -218 l  877 -218 l 
877 -71 l  877 -59 878 -51 879 -48 ct 881 -44 883 -42 886 -40 ct 890 -38 895 -37 901 -37 ct 
906 -37 912 -37 920 -38 ct p ef
960 0 m  960 -346 l  1002 -346 l  1002 -222 l  1022 -245 1047 -256 1077 -256 ct 
1096 -256 1112 -252 1126 -245 ct 1139 -238 1149 -228 1155 -215 ct 1161 -202 1164 -183 1164 -159 ct 
1164 0 l  1121 0 l  1121 -159 l  1121 -180 1117 -195 1108 -205 ct 1098 -215 1085 -219 1069 -219 ct 
1056 -219 1044 -216 1033 -210 ct 1022 -203 1014 -194 1009 -183 ct 1005 -172 1002 -157 1002 -137 ct 
1002 0 l  960 0 l  p ef
pom
1 lw [ ] 0 ld
16798 5600 m  19559 5600 l  19559 11371 l  16374 11371 l  ps
16318 5600 m  16821 5771 l  16821 5429 l  16318 5600 l  p ef
pum
16523 11930 t
32 0 m  32 -346 l  75 -346 l  75 -149 l  175 -250 l  230 -250 l  134 -157 l 
240 0 l  187 0 l  104 -128 l  75 -99 l  75 0 l  32 0 l  p ef
315 0 m  238 -251 l  282 -251 l  322 -106 l  337 -52 l  338 -55 342 -72 350 -104 ct 
390 -251 l  433 -251 l  471 -105 l  483 -57 l  498 -106 l  541 -251 l 
582 -251 l  504 0 l  460 0 l  420 -150 l  410 -193 l  359 0 l  315 0 l 
p ef
570 96 m  570 65 l  851 65 l  851 96 l  570 96 l  p ef
867 21 m  908 27 l  910 40 915 49 923 55 ct 933 63 948 67 966 67 ct 986 67 1001 63 1011 55 ct 
1022 47 1029 36 1033 22 ct 1035 13 1036 -5 1036 -33 ct 1018 -11 994 0 967 0 ct 
932 0 906 -12 887 -37 ct 868 -62 859 -92 859 -127 ct 859 -150 863 -172 872 -193 ct 
880 -213 893 -228 909 -239 ct 926 -251 945 -256 967 -256 ct 997 -256 1021 -244 1040 -220 ct 
1040 -250 l  1079 -250 l  1079 -34 l  1079 5 1075 33 1067 49 ct 1059 66 1047 78 1030 88 ct 
1012 97 991 102 966 102 ct 936 102 912 95 894 82 ct 875 68 866 48 867 21 ct p
902 -130 m  902 -97 909 -73 922 -58 ct 935 -43 951 -35 971 -35 ct 990 -35 1007 -43 1020 -58 ct 
1033 -73 1040 -96 1040 -128 ct 1040 -159 1033 -182 1019 -198 ct 1006 -213 989 -221 970 -221 ct 
951 -221 935 -213 922 -198 ct 909 -183 902 -160 902 -130 ct p ef
1311 -80 m  1355 -75 l  1348 -49 1335 -29 1317 -15 ct 1298 -1 1274 6 1245 6 ct 
1208 6 1179 -5 1158 -28 ct 1136 -50 1126 -82 1126 -123 ct 1126 -165 1137 -198 1158 -221 ct 
1180 -244 1208 -256 1243 -256 ct 1276 -256 1304 -244 1325 -222 ct 1346 -199 1357 -167 1357 -125 ct 
1357 -123 1357 -119 1356 -114 ct 1170 -114 l  1171 -87 1179 -65 1193 -51 ct 
1207 -36 1224 -29 1245 -29 ct 1261 -29 1274 -33 1285 -41 ct 1296 -49 1305 -62 1311 -80 ct 
p
1172 -149 m  1312 -149 l  1310 -170 1305 -186 1296 -196 ct 1282 -213 1265 -221 1243 -221 ct 
1224 -221 1207 -214 1194 -201 ct 1181 -188 1173 -171 1172 -149 ct p ef
1404 0 m  1404 -250 l  1442 -250 l  1442 -215 l  1460 -242 1487 -256 1522 -256 ct 
1537 -256 1551 -253 1563 -248 ct 1576 -242 1586 -235 1592 -227 ct 1598 -218 1603 -207 1605 -195 ct 
1607 -187 1607 -174 1607 -154 ct 1607 0 l  1565 0 l  1565 -152 l  1565 -170 1563 -182 1560 -191 ct 
1557 -200 1551 -206 1542 -212 ct 1534 -217 1524 -219 1513 -219 ct 1495 -219 1479 -213 1466 -202 ct 
1453 -191 1446 -169 1446 -137 ct 1446 0 l  1404 0 l  p ef
pom
15256 9371 m  15256 10080 l  ps
15256 10571 m  15424 10057 l  15088 10057 l  15256 10571 l  p ef
pum
13496 10411 t
32 0 m  32 -346 l  75 -346 l  75 -149 l  175 -250 l  230 -250 l  134 -157 l 
240 0 l  187 0 l  104 -128 l  75 -99 l  75 0 l  32 0 l  p ef
268 0 m  268 -346 l  310 -346 l  310 0 l  268 0 l  p ef
334 96 m  334 65 l  615 65 l  615 96 l  334 96 l  p ef
630 21 m  671 27 l  673 40 678 49 686 55 ct 696 63 711 67 729 67 ct 749 67 764 63 774 55 ct 
785 47 792 36 796 22 ct 798 13 799 -5 799 -33 ct 781 -11 757 0 730 0 ct 695 0 669 -12 650 -37 ct 
631 -62 622 -92 622 -127 ct 622 -150 626 -172 635 -193 ct 643 -213 656 -228 672 -239 ct 
689 -251 708 -256 730 -256 ct 760 -256 784 -244 803 -220 ct 803 -250 l  842 -250 l 
842 -34 l  842 5 838 33 830 49 ct 822 66 810 78 793 88 ct 775 97 754 102 729 102 ct 
699 102 675 95 657 82 ct 638 68 629 48 630 21 ct p
665 -130 m  665 -97 672 -73 685 -58 ct 698 -43 714 -35 734 -35 ct 753 -35 770 -43 783 -58 ct 
796 -73 803 -96 803 -128 ct 803 -159 796 -182 782 -198 ct 769 -213 752 -221 733 -221 ct 
714 -221 698 -213 685 -198 ct 672 -183 665 -160 665 -130 ct p ef
1074 -80 m  1118 -75 l  1111 -49 1098 -29 1080 -15 ct 1061 -1 1037 6 1008 6 ct 
971 6 942 -5 921 -28 ct 899 -50 889 -82 889 -123 ct 889 -165 900 -198 921 -221 ct 
943 -244 971 -256 1006 -256 ct 1039 -256 1067 -244 1088 -222 ct 1109 -199 1120 -167 1120 -125 ct 
1120 -123 1120 -119 1119 -114 ct 933 -114 l  934 -87 942 -65 956 -51 ct 970 -36 987 -29 1008 -29 ct 
1024 -29 1037 -33 1048 -41 ct 1059 -49 1068 -62 1074 -80 ct p
935 -149 m  1075 -149 l  1073 -170 1068 -186 1059 -196 ct 1045 -213 1028 -221 1006 -221 ct 
987 -221 970 -214 957 -201 ct 944 -188 936 -171 935 -149 ct p ef
1168 0 m  1168 -250 l  1206 -250 l  1206 -215 l  1224 -242 1251 -256 1286 -256 ct 
1301 -256 1315 -253 1327 -248 ct 1340 -242 1350 -235 1356 -227 ct 1362 -218 1367 -207 1369 -195 ct 
1371 -187 1371 -174 1371 -154 ct 1371 0 l  1329 0 l  1329 -152 l  1329 -170 1327 -182 1324 -191 ct 
1321 -200 1315 -206 1306 -212 ct 1298 -217 1288 -219 1277 -219 ct 1259 -219 1243 -213 1230 -202 ct 
1217 -191 1210 -169 1210 -137 ct 1210 0 l  1168 0 l  p ef
pom
7321 4857 m  7321 4799 l  ps
7321 4741 m  7321 4682 l  ps
7321 4624 m  7321 4566 l  ps
7321 4507 m  7321 4449 l  ps
7321 4391 m  7321 4333 l  ps
7321 4274 m  7321 4216 l  ps
7321 4158 m  7321 4099 l  ps
7321 4041 m  7321 3983 l  ps
7321 3925 m  7321 3866 l  ps
7321 3808 m  7321 3750 l  ps
7321 3691 m  7321 3633 l  ps
7321 3575 m  7321 3517 l  ps
7321 3458 m  7321 3400 l  ps
7321 3342 m  7321 3283 l  ps
7321 3225 m  7321 3167 l  ps
7321 3109 m  7321 3050 l  ps
7321 2992 m  7321 2934 l  ps
7321 2875 m  7321 2817 l  ps
7321 2759 m  7321 2701 l  ps
7321 2642 m  7321 2584 l  ps
7321 2526 m  7321 2486 l  7338 2486 l  ps
7395 2486 m  7452 2486 l  ps
7509 2486 m  7566 2486 l  ps
7623 2486 m  7680 2486 l  ps
7737 2486 m  7794 2486 l  ps
7851 2486 m  7908 2486 l  ps
7965 2486 m  8022 2486 l  ps
8079 2486 m  8136 2486 l  ps
8193 2486 m  8250 2486 l  ps
8307 2486 m  8364 2486 l  ps
8421 2486 m  8478 2486 l  ps
8535 2486 m  8592 2486 l  ps
8649 2486 m  8706 2486 l  ps
8763 2486 m  8820 2486 l  ps
8877 2486 m  8934 2486 l  ps
8991 2486 m  9048 2486 l  ps
9105 2486 m  9162 2486 l  ps
9219 2486 m  9276 2486 l  ps
9333 2486 m  9390 2486 l  ps
9447 2486 m  9504 2486 l  ps
9561 2486 m  9618 2486 l  ps
9675 2486 m  9732 2486 l  ps
9789 2486 m  9846 2486 l  ps
10059 2537 m  10059 2657 l  10394 2486 l  10059 2314 l  10059 2435 l  9825 2314 l 
9825 2657 l  10059 2537 l  p ef
pum
7591 3566 t
32 0 m  32 -346 l  75 -346 l  75 -149 l  175 -250 l  230 -250 l  134 -157 l 
240 0 l  187 0 l  104 -128 l  75 -99 l  75 0 l  32 0 l  p ef
269 -297 m  269 -346 l  312 -346 l  312 -297 l  269 -297 l  p
269 0 m  269 -250 l  312 -250 l  312 0 l  269 0 l  p ef
442 0 m  347 -251 l  392 -251 l  446 -100 l  452 -84 457 -67 462 -50 ct 466 -63 471 -79 478 -98 ct 
533 -251 l  577 -251 l  482 0 l  442 0 l  p ef
780 -80 m  824 -75 l  817 -49 804 -29 786 -15 ct 767 -1 743 6 714 6 ct 677 6 648 -5 627 -28 ct 
605 -50 595 -82 595 -123 ct 595 -165 606 -198 627 -221 ct 649 -244 677 -256 712 -256 ct 
745 -256 773 -244 794 -222 ct 815 -199 826 -167 826 -125 ct 826 -123 826 -119 825 -114 ct 
639 -114 l  640 -87 648 -65 662 -51 ct 676 -36 693 -29 714 -29 ct 730 -29 743 -33 754 -41 ct 
765 -49 774 -62 780 -80 ct p
641 -149 m  781 -149 l  779 -170 774 -186 765 -196 ct 751 -213 734 -221 712 -221 ct 
693 -221 676 -214 663 -201 ct 650 -188 642 -171 641 -149 ct p ef
874 0 m  874 -250 l  913 -250 l  913 -212 l  922 -230 931 -242 940 -248 ct 
948 -253 957 -256 967 -256 ct 981 -256 996 -251 1010 -242 ct 996 -203 l  985 -209 975 -212 965 -212 ct 
955 -212 947 -209 940 -204 ct 932 -198 927 -190 924 -181 ct 919 -165 917 -149 917 -131 ct 
917 0 l  874 0 l  p ef
991 96 m  991 65 l  1272 65 l  1272 96 l  991 96 l  p ef
1457 1 m  1457 -31 l  1441 -6 1418 6 1387 6 ct 1367 6 1349 0 1332 -11 ct 1315 -22 1303 -37 1293 -57 ct 
1284 -76 1280 -99 1280 -125 ct 1280 -150 1284 -172 1292 -193 ct 1300 -213 1313 -229 1330 -240 ct 
1346 -251 1365 -256 1385 -256 ct 1401 -256 1414 -253 1426 -246 ct 1438 -240 1447 -232 1455 -222 ct 
1455 -345 l  1497 -345 l  1497 1 l  1457 1 l  p
1323 -125 m  1323 -93 1330 -69 1343 -53 ct 1357 -37 1373 -29 1391 -29 ct 1410 -29 1426 -36 1439 -52 ct 
1452 -67 1458 -90 1458 -121 ct 1458 -156 1451 -181 1438 -197 ct 1425 -213 1409 -221 1389 -221 ct 
1371 -221 1355 -213 1342 -198 ct 1329 -182 1323 -158 1323 -125 ct p ef
1731 -80 m  1775 -75 l  1768 -49 1755 -29 1737 -15 ct 1718 -1 1694 6 1665 6 ct 
1628 6 1599 -5 1578 -28 ct 1556 -50 1546 -82 1546 -123 ct 1546 -165 1557 -198 1578 -221 ct 
1600 -244 1628 -256 1663 -256 ct 1696 -256 1724 -244 1745 -222 ct 1766 -199 1777 -167 1777 -125 ct 
1777 -123 1777 -119 1776 -114 ct 1590 -114 l  1591 -87 1599 -65 1613 -51 ct 
1627 -36 1644 -29 1665 -29 ct 1681 -29 1694 -33 1705 -41 ct 1716 -49 1725 -62 1731 -80 ct 
p
1592 -149 m  1732 -149 l  1730 -170 1725 -186 1716 -196 ct 1702 -213 1685 -221 1663 -221 ct 
1644 -221 1627 -214 1614 -201 ct 1601 -188 1593 -171 1592 -149 ct p ef
1988 -91 m  2030 -86 l  2025 -57 2014 -35 1995 -18 ct 1976 -2 1953 6 1926 6 ct 
1892 6 1864 -5 1843 -28 ct 1822 -50 1812 -82 1812 -124 ct 1812 -151 1816 -175 1825 -195 ct 
1834 -215 1848 -231 1866 -241 ct 1885 -251 1904 -256 1926 -256 ct 1953 -256 1975 -249 1993 -235 ct 
2010 -221 2021 -202 2026 -177 ct 1985 -170 l  1981 -187 1974 -200 1964 -208 ct 
1954 -217 1942 -221 1928 -221 ct 1906 -221 1889 -213 1876 -198 ct 1862 -183 1856 -158 1856 -125 ct 
1856 -92 1862 -67 1875 -52 ct 1888 -37 1905 -29 1925 -29 ct 1942 -29 1956 -34 1967 -44 ct 
1978 -54 1985 -70 1988 -91 ct p ef
2225 -31 m  2210 -17 2194 -8 2180 -2 ct 2165 3 2150 6 2133 6 ct 2106 6 2084 -1 2070 -14 ct 
2055 -28 2047 -45 2047 -66 ct 2047 -78 2050 -89 2056 -99 ct 2061 -110 2069 -118 2078 -124 ct 
2087 -130 2097 -135 2108 -138 ct 2117 -140 2129 -142 2146 -144 ct 2180 -148 2206 -153 2222 -159 ct 
2222 -165 2222 -168 2222 -170 ct 2222 -187 2218 -199 2210 -206 ct 2199 -216 2183 -221 2162 -221 ct 
2142 -221 2127 -217 2117 -210 ct 2108 -203 2101 -191 2096 -173 ct 2055 -179 l 
2059 -197 2065 -211 2073 -222 ct 2082 -233 2095 -241 2111 -247 ct 2127 -253 2146 -256 2168 -256 ct 
2189 -256 2206 -253 2220 -248 ct 2233 -243 2243 -237 2249 -229 ct 2256 -222 2260 -212 2263 -201 ct 
2264 -193 2265 -180 2265 -161 ct 2265 -105 l  2265 -65 2266 -40 2267 -30 ct 
2269 -19 2273 -9 2278 0 ct 2234 0 l  2229 -8 2227 -19 2225 -31 ct p
2222 -125 m  2206 -119 2183 -114 2152 -109 ct 2135 -107 2123 -104 2115 -101 ct 
2108 -98 2103 -93 2099 -87 ct 2095 -81 2093 -74 2093 -67 ct 2093 -56 2097 -46 2106 -39 ct 
2114 -31 2127 -27 2143 -27 ct 2160 -27 2174 -31 2187 -38 ct 2200 -45 2209 -55 2215 -67 ct 
2219 -77 2222 -91 2222 -110 ct 2222 -125 l  p ef
2325 97 m  2320 57 l  2330 59 2338 61 2345 61 ct 2354 61 2362 59 2367 56 ct 
2373 53 2377 48 2381 43 ct 2384 39 2388 28 2394 11 ct 2395 9 2396 5 2398 1 ct 2303 -250 l 
2349 -250 l  2401 -105 l  2407 -87 2413 -67 2419 -47 ct 2424 -66 2430 -86 2436 -104 ct 
2490 -250 l  2532 -250 l  2437 5 l  2427 32 2419 51 2413 61 ct 2406 75 2397 86 2387 92 ct 
2377 99 2366 102 2352 102 ct 2344 102 2335 100 2325 97 ct p ef
pom
pum
8790 5205 t
pom
9947 11371 m  9890 11371 l  ps
9833 11371 m  9776 11371 l  ps
9719 11371 m  9662 11371 l  ps
9605 11371 m  9548 11371 l  ps
9491 11371 m  9434 11371 l  ps
9377 11371 m  9320 11371 l  ps
9263 11371 m  9206 11371 l  ps
9149 11371 m  9092 11371 l  ps
9035 11371 m  8978 11371 l  ps
8921 11371 m  8864 11371 l  ps
8606 11320 m  8606 11200 l  8271 11371 l  8606 11543 l  8606 11422 l  8839 11543 l 
8839 11200 l  8606 11320 l  p ef
pum
6592 7987 t
pom
pum
6592 10719 t
pom
1.000 0.402 0.203 c 3744 1686 m  4345 1686 4806 2032 4806 2485 ct 4806 2937 4345 3285 3744 3285 ct 
3143 3285 2682 2937 2682 2485 ct 2682 2032 3143 1686 3744 1686 ct p
2682 1686 m  2682 1686 l  p
4807 3287 m  4807 3287 l  p ef
0 lw 0.503 0.503 0.503 c 3744 1685 m  4345 1685 4805 2031 4805 2484 ct 4805 2937 4345 3284 3744 3284 ct 
3142 3284 2682 2937 2682 2484 ct 2682 2031 3142 1685 3744 1685 ct pc
2682 1685 m  2682 1685 l  pc
4807 3286 m  4807 3286 l  pc
pum
3228 2653 t
0.003 0.003 0.003 c 194 1 m  194 -31 l  178 -6 155 6 124 6 ct 104 6 86 0 69 -11 ct 
52 -22 40 -37 30 -57 ct 21 -76 17 -99 17 -125 ct 17 -150 21 -172 29 -193 ct 37 -213 50 -229 67 -240 ct 
83 -251 102 -256 122 -256 ct 138 -256 151 -253 163 -246 ct 175 -240 184 -232 192 -222 ct 
192 -345 l  234 -345 l  234 1 l  194 1 l  p
60 -125 m  60 -93 67 -69 80 -53 ct 94 -37 110 -29 128 -29 ct 147 -29 163 -36 176 -52 ct 
189 -67 195 -90 195 -121 ct 195 -156 188 -181 175 -197 ct 162 -213 146 -221 126 -221 ct 
108 -221 92 -213 79 -198 ct 66 -182 60 -158 60 -125 ct p ef
468 -80 m  512 -75 l  505 -49 492 -29 474 -15 ct 455 -1 431 6 402 6 ct 365 6 336 -5 315 -28 ct 
293 -50 283 -82 283 -123 ct 283 -165 294 -198 315 -221 ct 337 -244 365 -256 400 -256 ct 
433 -256 461 -244 482 -222 ct 503 -199 514 -167 514 -125 ct 514 -123 514 -119 513 -114 ct 
327 -114 l  328 -87 336 -65 350 -51 ct 364 -36 381 -29 402 -29 ct 418 -29 431 -33 442 -41 ct 
453 -49 462 -62 468 -80 ct p
329 -149 m  469 -149 l  467 -170 462 -186 453 -196 ct 439 -213 422 -221 400 -221 ct 
381 -221 364 -214 351 -201 ct 338 -188 330 -171 329 -149 ct p ef
534 0 m  625 -130 l  540 -250 l  593 -250 l  632 -192 l  639 -180 645 -171 649 -164 ct 
656 -174 663 -183 668 -191 ct 711 -250 l  761 -250 l  675 -132 l  768 0 l 
716 0 l  664 -78 l  651 -99 l  585 0 l  534 0 l  p ef
962 -31 m  947 -17 931 -8 917 -2 ct 902 3 887 6 870 6 ct 843 6 821 -1 807 -14 ct 
792 -28 784 -45 784 -66 ct 784 -78 787 -89 793 -99 ct 798 -110 806 -118 815 -124 ct 
824 -130 834 -135 845 -138 ct 854 -140 866 -142 883 -144 ct 917 -148 943 -153 959 -159 ct 
959 -165 959 -168 959 -170 ct 959 -187 955 -199 947 -206 ct 936 -216 920 -221 899 -221 ct 
879 -221 864 -217 854 -210 ct 845 -203 838 -191 833 -173 ct 792 -179 l  796 -197 802 -211 810 -222 ct 
819 -233 832 -241 848 -247 ct 864 -253 883 -256 905 -256 ct 926 -256 943 -253 957 -248 ct 
970 -243 980 -237 986 -229 ct 993 -222 997 -212 1000 -201 ct 1001 -193 1002 -180 1002 -161 ct 
1002 -105 l  1002 -65 1003 -40 1004 -30 ct 1006 -19 1010 -9 1015 0 ct 971 0 l 
966 -8 964 -19 962 -31 ct p
959 -125 m  943 -119 920 -114 889 -109 ct 872 -107 860 -104 852 -101 ct 845 -98 840 -93 836 -87 ct 
832 -81 830 -74 830 -67 ct 830 -56 834 -46 843 -39 ct 851 -31 864 -27 880 -27 ct 
897 -27 911 -31 924 -38 ct 937 -45 946 -55 952 -67 ct 956 -77 959 -91 959 -110 ct 
959 -125 l  p ef
pom
1 lw 4806 2486 m  6896 2478 l  ps
7376 2477 m  6872 2307 l  6875 2650 l  7376 2477 l  p ef
pum
4943 3194 t
32 0 m  32 -346 l  75 -346 l  75 -149 l  175 -250 l  230 -250 l  134 -157 l 
240 0 l  187 0 l  104 -128 l  75 -99 l  75 0 l  32 0 l  p ef
269 -297 m  269 -346 l  312 -346 l  312 -297 l  269 -297 l  p
269 0 m  269 -250 l  312 -250 l  312 0 l  269 0 l  p ef
442 0 m  347 -251 l  392 -251 l  446 -100 l  452 -84 457 -67 462 -50 ct 466 -63 471 -79 478 -98 ct 
533 -251 l  577 -251 l  482 0 l  442 0 l  p ef
780 -80 m  824 -75 l  817 -49 804 -29 786 -15 ct 767 -1 743 6 714 6 ct 677 6 648 -5 627 -28 ct 
605 -50 595 -82 595 -123 ct 595 -165 606 -198 627 -221 ct 649 -244 677 -256 712 -256 ct 
745 -256 773 -244 794 -222 ct 815 -199 826 -167 826 -125 ct 826 -123 826 -119 825 -114 ct 
639 -114 l  640 -87 648 -65 662 -51 ct 676 -36 693 -29 714 -29 ct 730 -29 743 -33 754 -41 ct 
765 -49 774 -62 780 -80 ct p
641 -149 m  781 -149 l  779 -170 774 -186 765 -196 ct 751 -213 734 -221 712 -221 ct 
693 -221 676 -214 663 -201 ct 650 -188 642 -171 641 -149 ct p ef
874 0 m  874 -250 l  913 -250 l  913 -212 l  922 -230 931 -242 940 -248 ct 
948 -253 957 -256 967 -256 ct 981 -256 996 -251 1010 -242 ct 996 -203 l  985 -209 975 -212 965 -212 ct 
955 -212 947 -209 940 -204 ct 932 -198 927 -190 924 -181 ct 919 -165 917 -149 917 -131 ct 
917 0 l  874 0 l  p ef
991 96 m  991 65 l  1272 65 l  1272 96 l  991 96 l  p ef
1457 1 m  1457 -31 l  1441 -6 1418 6 1387 6 ct 1367 6 1349 0 1332 -11 ct 1315 -22 1303 -37 1293 -57 ct 
1284 -76 1280 -99 1280 -125 ct 1280 -150 1284 -172 1292 -193 ct 1300 -213 1313 -229 1330 -240 ct 
1346 -251 1365 -256 1385 -256 ct 1401 -256 1414 -253 1426 -246 ct 1438 -240 1447 -232 1455 -222 ct 
1455 -345 l  1497 -345 l  1497 1 l  1457 1 l  p
1323 -125 m  1323 -93 1330 -69 1343 -53 ct 1357 -37 1373 -29 1391 -29 ct 1410 -29 1426 -36 1439 -52 ct 
1452 -67 1458 -90 1458 -121 ct 1458 -156 1451 -181 1438 -197 ct 1425 -213 1409 -221 1389 -221 ct 
1371 -221 1355 -213 1342 -198 ct 1329 -182 1323 -158 1323 -125 ct p ef
1731 -80 m  1775 -75 l  1768 -49 1755 -29 1737 -15 ct 1718 -1 1694 6 1665 6 ct 
1628 6 1599 -5 1578 -28 ct 1556 -50 1546 -82 1546 -123 ct 1546 -165 1557 -198 1578 -221 ct 
1600 -244 1628 -256 1663 -256 ct 1696 -256 1724 -244 1745 -222 ct 1766 -199 1777 -167 1777 -125 ct 
1777 -123 1777 -119 1776 -114 ct 1590 -114 l  1591 -87 1599 -65 1613 -51 ct 
1627 -36 1644 -29 1665 -29 ct 1681 -29 1694 -33 1705 -41 ct 1716 -49 1725 -62 1731 -80 ct 
p
1592 -149 m  1732 -149 l  1730 -170 1725 -186 1716 -196 ct 1702 -213 1685 -221 1663 -221 ct 
1644 -221 1627 -214 1614 -201 ct 1601 -188 1593 -171 1592 -149 ct p ef
1797 0 m  1888 -130 l  1803 -250 l  1856 -250 l  1895 -192 l  1902 -180 1908 -171 1912 -164 ct 
1919 -174 1926 -183 1931 -191 ct 1974 -250 l  2024 -250 l  1938 -132 l  2031 0 l 
1979 0 l  1927 -78 l  1914 -99 l  1848 0 l  1797 0 l  p ef
2225 -31 m  2210 -17 2194 -8 2180 -2 ct 2165 3 2150 6 2133 6 ct 2106 6 2084 -1 2070 -14 ct 
2055 -28 2047 -45 2047 -66 ct 2047 -78 2050 -89 2056 -99 ct 2061 -110 2069 -118 2078 -124 ct 
2087 -130 2097 -135 2108 -138 ct 2117 -140 2129 -142 2146 -144 ct 2180 -148 2206 -153 2222 -159 ct 
2222 -165 2222 -168 2222 -170 ct 2222 -187 2218 -199 2210 -206 ct 2199 -216 2183 -221 2162 -221 ct 
2142 -221 2127 -217 2117 -210 ct 2108 -203 2101 -191 2096 -173 ct 2055 -179 l 
2059 -197 2065 -211 2073 -222 ct 2082 -233 2095 -241 2111 -247 ct 2127 -253 2146 -256 2168 -256 ct 
2189 -256 2206 -253 2220 -248 ct 2233 -243 2243 -237 2249 -229 ct 2256 -222 2260 -212 2263 -201 ct 
2264 -193 2265 -180 2265 -161 ct 2265 -105 l  2265 -65 2266 -40 2267 -30 ct 
2269 -19 2273 -9 2278 0 ct 2234 0 l  2229 -8 2227 -19 2225 -31 ct p
2222 -125 m  2206 -119 2183 -114 2152 -109 ct 2135 -107 2123 -104 2115 -101 ct 
2108 -98 2103 -93 2099 -87 ct 2095 -81 2093 -74 2093 -67 ct 2093 -56 2097 -46 2106 -39 ct 
2114 -31 2127 -27 2143 -27 ct 2160 -27 2174 -31 2187 -38 ct 2200 -45 2209 -55 2215 -67 ct 
2219 -77 2222 -91 2222 -110 ct 2222 -125 l  p ef
pom
0 lw [ 51 51 51 51 ] 0 ld
0.503 0.503 0.503 c 7320 10285 m  8271 11371 l  7320 12458 l  6370 11371 l 
7320 10285 l  7320 10285 l  pc
6370 10285 m  6370 10285 l  pc
8271 12458 m  8271 12458 l  pc
pum
6724 11538 t
0.003 0.003 0.003 c 194 1 m  194 -31 l  178 -6 155 6 124 6 ct 104 6 86 0 69 -11 ct 
52 -22 40 -37 30 -57 ct 21 -76 17 -99 17 -125 ct 17 -150 21 -172 29 -193 ct 37 -213 50 -229 67 -240 ct 
83 -251 102 -256 122 -256 ct 138 -256 151 -253 163 -246 ct 175 -240 184 -232 192 -222 ct 
192 -345 l  234 -345 l  234 1 l  194 1 l  p
60 -125 m  60 -93 67 -69 80 -53 ct 94 -37 110 -29 128 -29 ct 147 -29 163 -36 176 -52 ct 
189 -67 195 -90 195 -121 ct 195 -156 188 -181 175 -197 ct 162 -213 146 -221 126 -221 ct 
108 -221 92 -213 79 -198 ct 66 -182 60 -158 60 -125 ct p ef
468 -80 m  512 -75 l  505 -49 492 -29 474 -15 ct 455 -1 431 6 402 6 ct 365 6 336 -5 315 -28 ct 
293 -50 283 -82 283 -123 ct 283 -165 294 -198 315 -221 ct 337 -244 365 -256 400 -256 ct 
433 -256 461 -244 482 -222 ct 503 -199 514 -167 514 -125 ct 514 -123 514 -119 513 -114 ct 
327 -114 l  328 -87 336 -65 350 -51 ct 364 -36 381 -29 402 -29 ct 418 -29 431 -33 442 -41 ct 
453 -49 462 -62 468 -80 ct p
329 -149 m  469 -149 l  467 -170 462 -186 453 -196 ct 439 -213 422 -221 400 -221 ct 
381 -221 364 -214 351 -201 ct 338 -188 330 -171 329 -149 ct p ef
725 -31 m  710 -17 694 -8 680 -2 ct 665 3 650 6 633 6 ct 606 6 584 -1 570 -14 ct 
555 -28 547 -45 547 -66 ct 547 -78 550 -89 556 -99 ct 561 -110 569 -118 578 -124 ct 
587 -130 597 -135 608 -138 ct 617 -140 629 -142 646 -144 ct 680 -148 706 -153 722 -159 ct 
722 -165 722 -168 722 -170 ct 722 -187 718 -199 710 -206 ct 699 -216 683 -221 662 -221 ct 
642 -221 627 -217 617 -210 ct 608 -203 601 -191 596 -173 ct 555 -179 l  559 -197 565 -211 573 -222 ct 
582 -233 595 -241 611 -247 ct 627 -253 646 -256 668 -256 ct 689 -256 706 -253 720 -248 ct 
733 -243 743 -237 749 -229 ct 756 -222 760 -212 763 -201 ct 764 -193 765 -180 765 -161 ct 
765 -105 l  765 -65 766 -40 767 -30 ct 769 -19 773 -9 778 0 ct 734 0 l  729 -8 727 -19 725 -31 ct 
p
722 -125 m  706 -119 683 -114 652 -109 ct 635 -107 623 -104 615 -101 ct 608 -98 603 -93 599 -87 ct 
595 -81 593 -74 593 -67 ct 593 -56 597 -46 606 -39 ct 614 -31 627 -27 643 -27 ct 
660 -27 674 -31 687 -38 ct 700 -45 709 -55 715 -67 ct 719 -77 722 -91 722 -110 ct 
722 -125 l  p ef
920 -38 m  926 -1 l  914 2 903 3 894 3 ct 878 3 866 1 858 -4 ct 849 -9 843 -16 840 -24 ct 
836 -32 835 -48 835 -74 ct 835 -218 l  803 -218 l  803 -251 l  835 -251 l 
835 -313 l  877 -338 l  877 -251 l  920 -251 l  920 -218 l  877 -218 l 
877 -71 l  877 -59 878 -51 879 -48 ct 881 -44 883 -42 886 -40 ct 890 -38 895 -37 901 -37 ct 
906 -37 912 -37 920 -38 ct p ef
960 0 m  960 -346 l  1002 -346 l  1002 -222 l  1022 -245 1047 -256 1077 -256 ct 
1096 -256 1112 -252 1126 -245 ct 1139 -238 1149 -228 1155 -215 ct 1161 -202 1164 -183 1164 -159 ct 
1164 0 l  1121 0 l  1121 -159 l  1121 -180 1117 -195 1108 -205 ct 1098 -215 1085 -219 1069 -219 ct 
1056 -219 1044 -216 1033 -210 ct 1022 -203 1014 -194 1009 -183 ct 1005 -172 1002 -157 1002 -137 ct 
1002 0 l  960 0 l  p ef
pom
1 lw [ ] 0 ld
15256 12171 m  15256 12230 l  ps
15256 12288 m  15256 12346 l  ps
15256 12405 m  15256 12463 l  ps
15256 12521 m  15256 12579 l  ps
15256 12638 m  15256 12696 l  ps
15256 12754 m  15256 12813 l  ps
15256 12871 m  15256 12929 l  ps
15256 12987 m  15256 13046 l  ps
15256 13104 m  15256 13162 l  ps
15256 13221 m  15256 13279 l  ps
15256 13337 m  15256 13395 l  ps
15256 13454 m  15256 13512 l  ps
15256 13570 m  15256 13629 l  ps
15256 13687 m  15256 13745 l  ps
15256 13803 m  15256 13862 l  ps
15256 13920 m  15256 13978 l  ps
15256 14037 m  15256 14095 l  ps
15256 14153 m  15256 14211 l  ps
15256 14270 m  15256 14328 l  ps
15256 14386 m  15256 14445 l  ps
15256 14503 m  15256 14561 l  ps
15256 14619 m  15256 14678 l  ps
15256 14736 m  15256 14794 l  ps
15256 14853 m  15256 14911 l  ps
15256 14969 m  15256 15027 l  ps
15256 15086 m  15256 15144 l  ps
15256 15202 m  15256 15261 l  ps
15256 15319 m  15256 15377 l  ps
15256 15435 m  15256 15494 l  ps
15256 15552 m  15256 15610 l  ps
15245 15657 m  15188 15657 l  ps
15131 15657 m  15074 15657 l  ps
15017 15657 m  14960 15657 l  ps
14903 15657 m  14846 15657 l  ps
14789 15657 m  14732 15657 l  ps
14675 15657 m  14618 15657 l  ps
14561 15657 m  14504 15657 l  ps
14447 15657 m  14390 15657 l  ps
14333 15657 m  14276 15657 l  ps
14219 15657 m  14162 15657 l  ps
14105 15657 m  14048 15657 l  ps
13991 15657 m  13934 15657 l  ps
13877 15657 m  13820 15657 l  ps
13763 15657 m  13706 15657 l  ps
13649 15657 m  13592 15657 l  ps
13535 15657 m  13478 15657 l  ps
13421 15657 m  13364 15657 l  ps
13307 15657 m  13250 15657 l  ps
13193 15657 m  13136 15657 l  ps
13079 15657 m  13022 15657 l  ps
12965 15657 m  12908 15657 l  ps
12851 15657 m  12794 15657 l  ps
12737 15657 m  12680 15657 l  ps
12623 15657 m  12566 15657 l  ps
12509 15657 m  12452 15657 l  ps
12395 15657 m  12338 15657 l  ps
12281 15657 m  12224 15657 l  ps
12167 15657 m  12110 15657 l  ps
12053 15657 m  11996 15657 l  ps
11939 15657 m  11882 15657 l  ps
11825 15657 m  11768 15657 l  ps
11711 15657 m  11654 15657 l  ps
11597 15657 m  11540 15657 l  ps
11483 15657 m  11426 15657 l  ps
11369 15657 m  11312 15657 l  ps
11255 15657 m  11198 15657 l  ps
11141 15657 m  11084 15657 l  ps
11027 15657 m  10970 15657 l  ps
10913 15657 m  10856 15657 l  ps
10799 15657 m  10742 15657 l  ps
10685 15657 m  10628 15657 l  ps
10571 15657 m  10514 15657 l  ps
10457 15657 m  10400 15657 l  ps
10343 15657 m  10286 15657 l  ps
10229 15657 m  10172 15657 l  ps
10115 15657 m  10058 15657 l  ps
10001 15657 m  9944 15657 l  ps
9887 15657 m  9830 15657 l  ps
9773 15657 m  9716 15657 l  ps
9659 15657 m  9602 15657 l  ps
9545 15657 m  9488 15657 l  ps
9431 15657 m  9374 15657 l  ps
9317 15657 m  9260 15657 l  ps
9203 15657 m  9146 15657 l  ps
9089 15657 m  9032 15657 l  ps
8975 15657 m  8918 15657 l  ps
8861 15657 m  8804 15657 l  ps
8747 15657 m  8690 15657 l  ps
8633 15657 m  8576 15657 l  ps
8519 15657 m  8462 15657 l  ps
8405 15657 m  8348 15657 l  ps
8291 15657 m  8234 15657 l  ps
8177 15657 m  8120 15657 l  ps
8063 15657 m  8006 15657 l  ps
7949 15657 m  7892 15657 l  ps
7835 15657 m  7778 15657 l  ps
7721 15657 m  7664 15657 l  ps
7607 15657 m  7550 15657 l  ps
7493 15657 m  7436 15657 l  ps
7379 15657 m  7322 15657 l  ps
7321 15600 m  7321 15542 l  ps
7321 15483 m  7321 15425 l  ps
7321 15367 m  7321 15309 l  ps
7321 15250 m  7321 15192 l  ps
7321 15134 m  7321 15075 l  ps
7321 15017 m  7321 14959 l  ps
7321 14901 m  7321 14842 l  ps
7321 14784 m  7321 14726 l  ps
7321 14667 m  7321 14609 l  ps
7321 14551 m  7321 14493 l  ps
7321 14434 m  7321 14376 l  ps
7321 14318 m  7321 14259 l  ps
7321 14201 m  7321 14143 l  ps
7321 14085 m  7321 14026 l  ps
7321 13968 m  7321 13910 l  ps
7321 13851 m  7321 13793 l  ps
7321 13735 m  7321 13677 l  ps
7321 13618 m  7321 13560 l  ps
7321 13502 m  7321 13443 l  ps
7321 13385 m  7321 13327 l  ps
7321 13269 m  7321 13210 l  ps
7321 13152 m  7321 13094 l  ps
7321 13035 m  7321 13016 l  ps
7371 12800 m  7488 12800 l  7321 12457 l  7153 12800 l  7271 12800 l  7153 13039 l 
7488 13039 l  7371 12800 l  p ef
14138 8571 m  14081 8571 l  ps
14024 8571 m  13967 8571 l  ps
13910 8571 m  13853 8571 l  ps
13796 8571 m  13739 8571 l  ps
13682 8571 m  13625 8571 l  ps
13568 8571 m  13511 8571 l  ps
13454 8571 m  13397 8571 l  ps
13340 8571 m  13283 8571 l  ps
13226 8571 m  13169 8571 l  ps
13112 8571 m  13055 8571 l  ps
12998 8571 m  12941 8571 l  ps
12884 8571 m  12827 8571 l  ps
12770 8571 m  12713 8571 l  ps
12656 8571 m  12599 8571 l  ps
12542 8571 m  12485 8571 l  ps
12428 8571 m  12371 8571 l  ps
12314 8571 m  12257 8571 l  ps
12200 8571 m  12143 8571 l  ps
12086 8571 m  12029 8571 l  ps
11972 8571 m  11915 8571 l  ps
11858 8571 m  11801 8571 l  ps
11744 8571 m  11687 8571 l  ps
11630 8571 m  11573 8571 l  ps
11516 8571 m  11459 8571 l  ps
11402 8571 m  11345 8571 l  ps
11288 8571 m  11231 8571 l  ps
11174 8571 m  11117 8571 l  ps
11060 8571 m  11003 8571 l  ps
10946 8571 m  10889 8571 l  ps
10832 8571 m  10775 8571 l  ps
10718 8571 m  10661 8571 l  ps
10604 8571 m  10547 8571 l  ps
10490 8571 m  10433 8571 l  ps
10376 8571 m  10319 8571 l  ps
10262 8571 m  10205 8571 l  ps
10148 8571 m  10091 8571 l  ps
10034 8571 m  9977 8571 l  ps
9920 8571 m  9863 8571 l  ps
9806 8571 m  9749 8571 l  ps
9692 8571 m  9635 8571 l  ps
9578 8571 m  9521 8571 l  ps
9464 8571 m  9407 8571 l  ps
9350 8571 m  9293 8571 l  ps
9236 8571 m  9179 8571 l  ps
9122 8571 m  9065 8571 l  ps
9008 8571 m  8951 8571 l  ps
8894 8571 m  8837 8571 l  ps
8780 8571 m  8723 8571 l  ps
8666 8571 m  8609 8571 l  ps
8552 8571 m  8495 8571 l  ps
8438 8571 m  8381 8571 l  ps
8324 8571 m  8267 8571 l  ps
8210 8571 m  8153 8571 l  ps
8096 8571 m  8039 8571 l  ps
7982 8571 m  7925 8571 l  ps
7868 8571 m  7811 8571 l  ps
7754 8571 m  7697 8571 l  ps
7640 8571 m  7583 8571 l  ps
7526 8571 m  7469 8571 l  ps
7412 8571 m  7355 8571 l  ps
7321 8594 m  7321 8653 l  ps
7321 8711 m  7321 8769 l  ps
7321 8827 m  7321 8886 l  ps
7321 8944 m  7321 9002 l  ps
7321 9061 m  7321 9119 l  ps
7321 9177 m  7321 9235 l  ps
7321 9294 m  7321 9352 l  ps
7321 9410 m  7321 9469 l  ps
7321 9527 m  7321 9585 l  ps
7321 9643 m  7321 9702 l  ps
7270 9943 m  7153 9943 l  7321 10286 l  7488 9943 l  7370 9943 l  7488 9704 l 
7153 9704 l  7270 9943 l  p ef
18062 9256 m  18062 9714 l  15714 9714 l  ps
15249 9698 m  15747 9886 l  15758 9544 l  15249 9698 l  p ef
18062 7656 m  18062 7086 l  15736 7086 l  ps
15256 7086 m  15759 7257 l  15759 6914 l  15256 7086 l  p ef
4531 11371 m  4588 11371 l  ps
4645 11371 m  4702 11371 l  ps
4759 11371 m  4816 11371 l  ps
4873 11371 m  4930 11371 l  ps
4987 11371 m  5044 11371 l  ps
5101 11371 m  5158 11371 l  ps
5215 11371 m  5272 11371 l  ps
5329 11371 m  5386 11371 l  ps
5443 11371 m  5500 11371 l  ps
5557 11371 m  5614 11371 l  ps
5671 11371 m  5728 11371 l  ps
5785 11371 m  5824 11371 l  ps
6035 11423 m  6035 11543 l  6371 11371 l  6035 11200 l  6035 11321 l  5802 11200 l 
5802 11543 l  6035 11423 l  p ef
pum
2934 7987 t
pom
pum
2934 10719 t
pom
0.003 0.722 1.000 c 7321 6343 m  6147 6343 l  6147 4857 l  8494 4857 l  8494 6343 l 
7321 6343 l  p ef
0 lw 0.503 0.503 0.503 c 7320 6342 m  6147 6342 l  6147 4857 l  8494 4857 l 
8494 6342 l  7320 6342 l  pc
pum
6242 5767 t
0.003 0.003 0.003 c 32 -297 m  32 -346 l  75 -346 l  75 -297 l  32 -297 l 
p
32 0 m  32 -250 l  75 -250 l  75 0 l  32 0 l  p ef
205 0 m  110 -251 l  155 -251 l  209 -100 l  215 -84 220 -67 225 -50 ct 229 -63 234 -79 241 -98 ct 
296 -251 l  340 -251 l  245 0 l  205 0 l  p ef
544 -80 m  588 -75 l  581 -49 568 -29 550 -15 ct 531 -1 507 6 478 6 ct 441 6 412 -5 391 -28 ct 
369 -50 359 -82 359 -123 ct 359 -165 370 -198 391 -221 ct 413 -244 441 -256 476 -256 ct 
509 -256 537 -244 558 -222 ct 579 -199 590 -167 590 -125 ct 590 -123 590 -119 589 -114 ct 
403 -114 l  404 -87 412 -65 426 -51 ct 440 -36 457 -29 478 -29 ct 494 -29 507 -33 518 -41 ct 
529 -49 538 -62 544 -80 ct p
405 -149 m  545 -149 l  543 -170 538 -186 529 -196 ct 515 -213 498 -221 476 -221 ct 
457 -221 440 -214 427 -201 ct 414 -188 406 -171 405 -149 ct p ef
637 0 m  637 -250 l  676 -250 l  676 -212 l  685 -230 694 -242 703 -248 ct 
711 -253 720 -256 730 -256 ct 744 -256 759 -251 773 -242 ct 759 -203 l  748 -209 738 -212 728 -212 ct 
718 -212 710 -209 703 -204 ct 695 -198 690 -190 687 -181 ct 682 -165 680 -149 680 -131 ct 
680 0 l  637 0 l  p ef
794 0 m  794 -250 l  832 -250 l  832 -215 l  840 -227 850 -237 863 -245 ct 
876 -252 891 -256 908 -256 ct 926 -256 942 -252 953 -244 ct 965 -237 974 -226 979 -212 ct 
998 -241 1024 -256 1056 -256 ct 1081 -256 1100 -249 1113 -235 ct 1127 -222 1133 -200 1133 -172 ct 
1133 0 l  1091 0 l  1091 -158 l  1091 -175 1090 -187 1087 -194 ct 1084 -202 1079 -208 1072 -212 ct 
1065 -217 1056 -219 1046 -219 ct 1029 -219 1014 -213 1003 -202 ct 991 -190 985 -171 985 -145 ct 
985 0 l  943 0 l  943 -163 l  943 -182 939 -196 932 -205 ct 925 -215 914 -219 898 -219 ct 
886 -219 875 -216 865 -210 ct 855 -204 848 -194 843 -182 ct 839 -170 836 -153 836 -130 ct 
836 0 l  794 0 l  p ef
1358 -80 m  1402 -75 l  1395 -49 1382 -29 1364 -15 ct 1345 -1 1321 6 1292 6 ct 
1255 6 1226 -5 1205 -28 ct 1183 -50 1173 -82 1173 -123 ct 1173 -165 1184 -198 1205 -221 ct 
1227 -244 1255 -256 1290 -256 ct 1323 -256 1351 -244 1372 -222 ct 1393 -199 1404 -167 1404 -125 ct 
1404 -123 1404 -119 1403 -114 ct 1217 -114 l  1218 -87 1226 -65 1240 -51 ct 
1254 -36 1271 -29 1292 -29 ct 1308 -29 1321 -33 1332 -41 ct 1343 -49 1352 -62 1358 -80 ct 
p
1219 -149 m  1359 -149 l  1357 -170 1352 -186 1343 -196 ct 1329 -213 1312 -221 1290 -221 ct 
1271 -221 1254 -214 1241 -201 ct 1228 -188 1220 -171 1219 -149 ct p ef
1614 -91 m  1656 -86 l  1651 -57 1640 -35 1621 -18 ct 1602 -2 1579 6 1552 6 ct 
1518 6 1490 -5 1469 -28 ct 1448 -50 1438 -82 1438 -124 ct 1438 -151 1442 -175 1451 -195 ct 
1460 -215 1474 -231 1492 -241 ct 1511 -251 1530 -256 1552 -256 ct 1579 -256 1601 -249 1619 -235 ct 
1636 -221 1647 -202 1652 -177 ct 1611 -170 l  1607 -187 1600 -200 1590 -208 ct 
1580 -217 1568 -221 1554 -221 ct 1532 -221 1515 -213 1502 -198 ct 1488 -183 1482 -158 1482 -125 ct 
1482 -92 1488 -67 1501 -52 ct 1514 -37 1531 -29 1551 -29 ct 1568 -29 1582 -34 1593 -44 ct 
1604 -54 1611 -70 1614 -91 ct p ef
1781 -38 m  1787 -1 l  1775 2 1764 3 1755 3 ct 1739 3 1727 1 1719 -4 ct 1710 -9 1704 -16 1701 -24 ct 
1697 -32 1696 -48 1696 -74 ct 1696 -218 l  1664 -218 l  1664 -251 l  1696 -251 l 
1696 -313 l  1738 -338 l  1738 -251 l  1781 -251 l  1781 -218 l  1738 -218 l 
1738 -71 l  1738 -59 1739 -51 1740 -48 ct 1742 -44 1744 -42 1747 -40 ct 1751 -38 1756 -37 1762 -37 ct 
1767 -37 1773 -37 1781 -38 ct p ef
1820 -297 m  1820 -346 l  1863 -346 l  1863 -297 l  1820 -297 l  p
1820 0 m  1820 -250 l  1863 -250 l  1863 0 l  1820 0 l  p ef
1924 0 m  1924 -250 l  1962 -250 l  1962 -215 l  1980 -242 2007 -256 2042 -256 ct 
2057 -256 2071 -253 2083 -248 ct 2096 -242 2106 -235 2112 -227 ct 2118 -218 2123 -207 2125 -195 ct 
2127 -187 2127 -174 2127 -154 ct 2127 0 l  2085 0 l  2085 -152 l  2085 -170 2083 -182 2080 -191 ct 
2077 -200 2071 -206 2062 -212 ct 2054 -217 2044 -219 2033 -219 ct 2015 -219 1999 -213 1986 -202 ct 
1973 -191 1966 -169 1966 -137 ct 1966 0 l  1924 0 l  p ef
pom
0.812 0.906 0.960 c 1737 10514 m  4532 10514 l  4532 12230 l  1737 12230 l 
1737 10514 l  1737 10514 l  p
1737 10514 m  1737 10514 l  p
4532 12230 m  4532 12230 l  p ef
0.503 0.503 0.503 c 1736 10514 m  4532 10514 l  4532 12229 l  1736 12229 l 
1736 10514 l  1736 10514 l  pc
1736 10514 m  1736 10514 l  pc
4532 12229 m  4532 12229 l  pc
pum
2265 11265 t
0.003 0.003 0.003 c 284 -121 m  330 -109 l  320 -72 303 -43 278 -24 ct 253 -4 223 6 187 6 ct 
149 6 119 -2 96 -17 ct 72 -32 55 -54 42 -83 ct 30 -111 24 -142 24 -175 ct 24 -211 31 -243 45 -269 ct 
58 -296 78 -316 103 -330 ct 129 -344 157 -351 187 -351 ct 222 -351 251 -342 275 -325 ct 
298 -307 315 -282 324 -251 ct 279 -240 l  271 -265 259 -283 244 -295 ct 229 -306 209 -312 186 -312 ct 
160 -312 138 -306 120 -293 ct 102 -280 89 -263 82 -242 ct 75 -220 71 -198 71 -175 ct 
71 -146 76 -120 84 -98 ct 93 -77 106 -60 124 -49 ct 142 -39 162 -33 183 -33 ct 
208 -33 230 -41 248 -55 ct 266 -70 278 -92 284 -121 ct p ef
544 -80 m  588 -75 l  581 -49 568 -29 550 -15 ct 531 -1 507 6 478 6 ct 441 6 412 -5 391 -28 ct 
369 -50 359 -82 359 -123 ct 359 -165 370 -198 391 -221 ct 413 -244 441 -256 476 -256 ct 
509 -256 537 -244 558 -222 ct 579 -199 590 -167 590 -125 ct 590 -123 590 -119 589 -114 ct 
403 -114 l  404 -87 412 -65 426 -51 ct 440 -36 457 -29 478 -29 ct 494 -29 507 -33 518 -41 ct 
529 -49 538 -62 544 -80 ct p
405 -149 m  545 -149 l  543 -170 538 -186 529 -196 ct 515 -213 498 -221 476 -221 ct 
457 -221 440 -214 427 -201 ct 414 -188 406 -171 405 -149 ct p ef
637 0 m  637 -346 l  679 -346 l  679 0 l  637 0 l  p ef
741 0 m  741 -346 l  783 -346 l  783 0 l  741 0 l  p ef
1010 0 m  1010 -36 l  990 -8 964 6 931 6 ct 916 6 902 3 889 -2 ct 876 -8 867 -15 861 -24 ct 
854 -32 850 -43 847 -55 ct 846 -64 845 -77 845 -95 ct 845 -250 l  887 -250 l 
887 -111 l  887 -89 888 -74 890 -66 ct 893 -55 898 -46 907 -40 ct 916 -34 926 -31 939 -31 ct 
952 -31 964 -34 975 -40 ct 986 -47 994 -56 999 -67 ct 1003 -78 1006 -95 1006 -116 ct 
1006 -250 l  1048 -250 l  1048 0 l  1010 0 l  p ef
1110 0 m  1110 -346 l  1152 -346 l  1152 0 l  1110 0 l  p ef
1377 -31 m  1362 -17 1346 -8 1332 -2 ct 1317 3 1302 6 1285 6 ct 1258 6 1236 -1 1222 -14 ct 
1207 -28 1199 -45 1199 -66 ct 1199 -78 1202 -89 1208 -99 ct 1213 -110 1221 -118 1230 -124 ct 
1239 -130 1249 -135 1260 -138 ct 1269 -140 1281 -142 1298 -144 ct 1332 -148 1358 -153 1374 -159 ct 
1374 -165 1374 -168 1374 -170 ct 1374 -187 1370 -199 1362 -206 ct 1351 -216 1335 -221 1314 -221 ct 
1294 -221 1279 -217 1269 -210 ct 1260 -203 1253 -191 1248 -173 ct 1207 -179 l 
1211 -197 1217 -211 1225 -222 ct 1234 -233 1247 -241 1263 -247 ct 1279 -253 1298 -256 1320 -256 ct 
1341 -256 1358 -253 1372 -248 ct 1385 -243 1395 -237 1401 -229 ct 1408 -222 1412 -212 1415 -201 ct 
1416 -193 1417 -180 1417 -161 ct 1417 -105 l  1417 -65 1418 -40 1419 -30 ct 
1421 -19 1425 -9 1430 0 ct 1386 0 l  1381 -8 1379 -19 1377 -31 ct p
1374 -125 m  1358 -119 1335 -114 1304 -109 ct 1287 -107 1275 -104 1267 -101 ct 
1260 -98 1255 -93 1251 -87 ct 1247 -81 1245 -74 1245 -67 ct 1245 -56 1249 -46 1258 -39 ct 
1266 -31 1279 -27 1295 -27 ct 1312 -27 1326 -31 1339 -38 ct 1352 -45 1361 -55 1367 -67 ct 
1371 -77 1374 -91 1374 -110 ct 1374 -125 l  p ef
1478 0 m  1478 -250 l  1517 -250 l  1517 -212 l  1526 -230 1535 -242 1544 -248 ct 
1552 -253 1561 -256 1571 -256 ct 1585 -256 1600 -251 1614 -242 ct 1600 -203 l 
1589 -209 1579 -212 1569 -212 ct 1559 -212 1551 -209 1544 -204 ct 1536 -198 1531 -190 1528 -181 ct 
1523 -165 1521 -149 1521 -131 ct 1521 0 l  1478 0 l  p ef
pom
pum
2065 11811 t
38 1 m  38 -345 l  191 -345 l  222 -345 246 -342 262 -336 ct 278 -330 290 -319 300 -303 ct 
310 -287 314 -270 314 -251 ct 314 -226 306 -206 291 -189 ct 275 -172 250 -161 217 -157 ct 
229 -151 238 -145 245 -140 ct 258 -127 271 -112 283 -94 ct 343 1 l  285 1 l 
239 -71 l  226 -92 215 -108 206 -119 ct 198 -130 190 -138 183 -142 ct 176 -147 169 -150 162 -151 ct 
157 -152 149 -153 137 -153 ct 84 -153 l  84 1 l  38 1 l  p
84 -193 m  182 -193 l  203 -193 219 -195 231 -199 ct 243 -203 252 -210 258 -220 ct 
264 -229 267 -240 267 -251 ct 267 -267 261 -281 249 -291 ct 238 -302 219 -307 193 -307 ct 
84 -307 l  84 -193 l  p ef
544 -80 m  588 -75 l  581 -49 568 -29 550 -15 ct 531 -1 507 6 478 6 ct 441 6 412 -5 391 -28 ct 
369 -50 359 -82 359 -123 ct 359 -165 370 -198 391 -221 ct 413 -244 441 -256 476 -256 ct 
509 -256 537 -244 558 -222 ct 579 -199 590 -167 590 -125 ct 590 -123 590 -119 589 -114 ct 
403 -114 l  404 -87 412 -65 426 -51 ct 440 -36 457 -29 478 -29 ct 494 -29 507 -33 518 -41 ct 
529 -49 538 -62 544 -80 ct p
405 -149 m  545 -149 l  543 -170 538 -186 529 -196 ct 515 -213 498 -221 476 -221 ct 
457 -221 440 -214 427 -201 ct 414 -188 406 -171 405 -149 ct p ef
621 -74 m  663 -81 l  665 -64 672 -51 683 -42 ct 693 -33 708 -29 728 -29 ct 
747 -29 762 -33 771 -41 ct 781 -49 785 -58 785 -69 ct 785 -78 781 -86 773 -91 ct 
767 -95 752 -100 729 -106 ct 698 -114 677 -120 665 -126 ct 653 -132 643 -140 637 -150 ct 
631 -160 628 -171 628 -184 ct 628 -195 630 -205 636 -215 ct 641 -224 648 -232 656 -238 ct 
663 -243 672 -247 683 -251 ct 695 -254 707 -256 720 -256 ct 740 -256 757 -253 772 -247 ct 
787 -242 798 -234 805 -224 ct 812 -215 817 -202 819 -186 ct 778 -180 l  776 -193 771 -203 762 -210 ct 
752 -217 740 -221 723 -221 ct 704 -221 690 -218 681 -211 ct 673 -205 669 -197 669 -189 ct 
669 -183 671 -178 674 -174 ct 678 -169 683 -165 690 -162 ct 695 -161 707 -157 728 -152 ct 
758 -144 779 -137 791 -132 ct 803 -127 812 -119 819 -110 ct 826 -100 829 -88 829 -73 ct 
829 -59 825 -46 816 -33 ct 808 -21 796 -11 781 -4 ct 765 3 748 6 728 6 ct 695 6 671 -1 654 -14 ct 
636 -28 626 -48 621 -74 ct p ef
875 96 m  875 -250 l  914 -250 l  914 -218 l  923 -231 933 -240 944 -246 ct 
956 -253 970 -256 986 -256 ct 1008 -256 1026 -251 1043 -239 ct 1059 -228 1071 -213 1080 -193 ct 
1088 -173 1092 -151 1092 -127 ct 1092 -101 1088 -78 1078 -58 ct 1069 -37 1056 -21 1038 -11 ct 
1021 0 1002 6 983 6 ct 969 6 956 3 945 -3 ct 934 -9 925 -17 917 -26 ct 917 96 l 
875 96 l  p
913 -124 m  913 -91 920 -68 933 -52 ct 946 -37 962 -29 980 -29 ct 999 -29 1015 -37 1029 -53 ct 
1042 -69 1049 -94 1049 -127 ct 1049 -159 1042 -183 1029 -199 ct 1016 -215 1000 -223 982 -223 ct 
964 -223 948 -214 934 -197 ct 920 -180 913 -156 913 -124 ct p ef
1124 -125 m  1124 -171 1137 -206 1163 -228 ct 1184 -247 1211 -256 1241 -256 ct 
1276 -256 1304 -245 1326 -222 ct 1348 -200 1359 -168 1359 -129 ct 1359 -96 1354 -71 1344 -52 ct 
1335 -34 1320 -20 1302 -9 ct 1284 1 1263 6 1241 6 ct 1206 6 1178 -5 1156 -28 ct 
1135 -50 1124 -83 1124 -125 ct p
1168 -125 m  1168 -93 1175 -69 1189 -53 ct 1203 -37 1220 -29 1241 -29 ct 1263 -29 1280 -37 1294 -53 ct 
1308 -69 1315 -94 1315 -126 ct 1315 -157 1308 -181 1294 -197 ct 1280 -213 1262 -221 1241 -221 ct 
1220 -221 1203 -213 1189 -197 ct 1175 -181 1168 -157 1168 -125 ct p ef
1404 0 m  1404 -250 l  1442 -250 l  1442 -215 l  1460 -242 1487 -256 1522 -256 ct 
1537 -256 1551 -253 1563 -248 ct 1576 -242 1586 -235 1592 -227 ct 1598 -218 1603 -207 1605 -195 ct 
1607 -187 1607 -174 1607 -154 ct 1607 0 l  1565 0 l  1565 -152 l  1565 -170 1563 -182 1560 -191 ct 
1557 -200 1551 -206 1542 -212 ct 1534 -217 1524 -219 1513 -219 ct 1495 -219 1479 -213 1466 -202 ct 
1453 -191 1446 -169 1446 -137 ct 1446 0 l  1404 0 l  p ef
1652 -74 m  1694 -81 l  1696 -64 1703 -51 1714 -42 ct 1724 -33 1739 -29 1759 -29 ct 
1778 -29 1793 -33 1802 -41 ct 1812 -49 1816 -58 1816 -69 ct 1816 -78 1812 -86 1804 -91 ct 
1798 -95 1783 -100 1760 -106 ct 1729 -114 1708 -120 1696 -126 ct 1684 -132 1674 -140 1668 -150 ct 
1662 -160 1659 -171 1659 -184 ct 1659 -195 1661 -205 1667 -215 ct 1672 -224 1679 -232 1687 -238 ct 
1694 -243 1703 -247 1714 -251 ct 1726 -254 1738 -256 1751 -256 ct 1771 -256 1788 -253 1803 -247 ct 
1818 -242 1829 -234 1836 -224 ct 1843 -215 1848 -202 1850 -186 ct 1809 -180 l 
1807 -193 1802 -203 1793 -210 ct 1783 -217 1771 -221 1754 -221 ct 1735 -221 1721 -218 1712 -211 ct 
1704 -205 1700 -197 1700 -189 ct 1700 -183 1702 -178 1705 -174 ct 1709 -169 1714 -165 1721 -162 ct 
1726 -161 1738 -157 1759 -152 ct 1789 -144 1810 -137 1822 -132 ct 1834 -127 1843 -119 1850 -110 ct 
1857 -100 1860 -88 1860 -73 ct 1860 -59 1856 -46 1847 -33 ct 1839 -21 1827 -11 1812 -4 ct 
1796 3 1779 6 1759 6 ct 1726 6 1702 -1 1685 -14 ct 1667 -28 1657 -48 1652 -74 ct 
p ef
2076 -80 m  2120 -75 l  2113 -49 2100 -29 2082 -15 ct 2063 -1 2039 6 2010 6 ct 
1973 6 1944 -5 1923 -28 ct 1901 -50 1891 -82 1891 -123 ct 1891 -165 1902 -198 1923 -221 ct 
1945 -244 1973 -256 2008 -256 ct 2041 -256 2069 -244 2090 -222 ct 2111 -199 2122 -167 2122 -125 ct 
2122 -123 2122 -119 2121 -114 ct 1935 -114 l  1936 -87 1944 -65 1958 -51 ct 
1972 -36 1989 -29 2010 -29 ct 2026 -29 2039 -33 2050 -41 ct 2061 -49 2070 -62 2076 -80 ct 
p
1937 -149 m  2077 -149 l  2075 -170 2070 -186 2061 -196 ct 2047 -213 2030 -221 2008 -221 ct 
1989 -221 1972 -214 1959 -201 ct 1946 -188 1938 -171 1937 -149 ct p ef
pom
1 lw 3134 10514 m  3134 8571 l  6840 8571 l  ps
7321 8571 m  6818 8400 l  6818 8743 l  7321 8571 l  p ef
3134 12229 m  3134 16686 l  9332 16686 l  9332 16135 l  ps
9332 15643 m  9165 16158 l  9500 16158 l  9332 15643 l  p ef
5421 12800 m  5419 11899 l  ps
5418 11408 m  5252 11922 l  5587 11922 l  5418 11408 l  p ef
1.000 0.402 0.203 c 5421 12800 m  6022 12800 6482 13146 6482 13599 ct 6482 14051 6022 14399 5421 14399 ct 
4819 14399 4359 14051 4359 13599 ct 4359 13146 4819 12800 5421 12800 ct p
4359 12800 m  4359 12800 l  p
6483 14401 m  6483 14401 l  p ef
0 lw 0.503 0.503 0.503 c 5420 12799 m  6021 12799 6482 13146 6482 13598 ct 
6482 14051 6021 14398 5420 14398 ct 4819 14398 4358 14051 4358 13598 ct 4358 13146 4819 12799 5420 12799 ct 
pc
4358 12799 m  4358 12799 l  pc
6483 14401 m  6483 14401 l  pc
pum
4904 13767 t
0.003 0.003 0.003 c 194 1 m  194 -31 l  178 -6 155 6 124 6 ct 104 6 86 0 69 -11 ct 
52 -22 40 -37 30 -57 ct 21 -76 17 -99 17 -125 ct 17 -150 21 -172 29 -193 ct 37 -213 50 -229 67 -240 ct 
83 -251 102 -256 122 -256 ct 138 -256 151 -253 163 -246 ct 175 -240 184 -232 192 -222 ct 
192 -345 l  234 -345 l  234 1 l  194 1 l  p
60 -125 m  60 -93 67 -69 80 -53 ct 94 -37 110 -29 128 -29 ct 147 -29 163 -36 176 -52 ct 
189 -67 195 -90 195 -121 ct 195 -156 188 -181 175 -197 ct 162 -213 146 -221 126 -221 ct 
108 -221 92 -213 79 -198 ct 66 -182 60 -158 60 -125 ct p ef
468 -80 m  512 -75 l  505 -49 492 -29 474 -15 ct 455 -1 431 6 402 6 ct 365 6 336 -5 315 -28 ct 
293 -50 283 -82 283 -123 ct 283 -165 294 -198 315 -221 ct 337 -244 365 -256 400 -256 ct 
433 -256 461 -244 482 -222 ct 503 -199 514 -167 514 -125 ct 514 -123 514 -119 513 -114 ct 
327 -114 l  328 -87 336 -65 350 -51 ct 364 -36 381 -29 402 -29 ct 418 -29 431 -33 442 -41 ct 
453 -49 462 -62 468 -80 ct p
329 -149 m  469 -149 l  467 -170 462 -186 453 -196 ct 439 -213 422 -221 400 -221 ct 
381 -221 364 -214 351 -201 ct 338 -188 330 -171 329 -149 ct p ef
534 0 m  625 -130 l  540 -250 l  593 -250 l  632 -192 l  639 -180 645 -171 649 -164 ct 
656 -174 663 -183 668 -191 ct 711 -250 l  761 -250 l  675 -132 l  768 0 l 
716 0 l  664 -78 l  651 -99 l  585 0 l  534 0 l  p ef
962 -31 m  947 -17 931 -8 917 -2 ct 902 3 887 6 870 6 ct 843 6 821 -1 807 -14 ct 
792 -28 784 -45 784 -66 ct 784 -78 787 -89 793 -99 ct 798 -110 806 -118 815 -124 ct 
824 -130 834 -135 845 -138 ct 854 -140 866 -142 883 -144 ct 917 -148 943 -153 959 -159 ct 
959 -165 959 -168 959 -170 ct 959 -187 955 -199 947 -206 ct 936 -216 920 -221 899 -221 ct 
879 -221 864 -217 854 -210 ct 845 -203 838 -191 833 -173 ct 792 -179 l  796 -197 802 -211 810 -222 ct 
819 -233 832 -241 848 -247 ct 864 -253 883 -256 905 -256 ct 926 -256 943 -253 957 -248 ct 
970 -243 980 -237 986 -229 ct 993 -222 997 -212 1000 -201 ct 1001 -193 1002 -180 1002 -161 ct 
1002 -105 l  1002 -65 1003 -40 1004 -30 ct 1006 -19 1010 -9 1015 0 ct 971 0 l 
966 -8 964 -19 962 -31 ct p
959 -125 m  943 -119 920 -114 889 -109 ct 872 -107 860 -104 852 -101 ct 845 -98 840 -93 836 -87 ct 
832 -81 830 -74 830 -67 ct 830 -56 834 -46 843 -39 ct 851 -31 864 -27 880 -27 ct 
897 -27 911 -31 924 -38 ct 937 -45 946 -55 952 -67 ct 956 -77 959 -91 959 -110 ct 
959 -125 l  p ef
pom
0.003 0.722 1.000 c 9332 14400 m  8159 14400 l  8159 12914 l  10506 12914 l 
10506 14400 l  9332 14400 l  p ef
0.503 0.503 0.503 c 9332 14399 m  8158 14399 l  8158 12914 l  10505 12914 l 
10505 14399 l  9332 14399 l  pc
pum
8254 13824 t
0.003 0.003 0.003 c 32 -297 m  32 -346 l  75 -346 l  75 -297 l  32 -297 l 
p
32 0 m  32 -250 l  75 -250 l  75 0 l  32 0 l  p ef
205 0 m  110 -251 l  155 -251 l  209 -100 l  215 -84 220 -67 225 -50 ct 229 -63 234 -79 241 -98 ct 
296 -251 l  340 -251 l  245 0 l  205 0 l  p ef
544 -80 m  588 -75 l  581 -49 568 -29 550 -15 ct 531 -1 507 6 478 6 ct 441 6 412 -5 391 -28 ct 
369 -50 359 -82 359 -123 ct 359 -165 370 -198 391 -221 ct 413 -244 441 -256 476 -256 ct 
509 -256 537 -244 558 -222 ct 579 -199 590 -167 590 -125 ct 590 -123 590 -119 589 -114 ct 
403 -114 l  404 -87 412 -65 426 -51 ct 440 -36 457 -29 478 -29 ct 494 -29 507 -33 518 -41 ct 
529 -49 538 -62 544 -80 ct p
405 -149 m  545 -149 l  543 -170 538 -186 529 -196 ct 515 -213 498 -221 476 -221 ct 
457 -221 440 -214 427 -201 ct 414 -188 406 -171 405 -149 ct p ef
637 0 m  637 -250 l  676 -250 l  676 -212 l  685 -230 694 -242 703 -248 ct 
711 -253 720 -256 730 -256 ct 744 -256 759 -251 773 -242 ct 759 -203 l  748 -209 738 -212 728 -212 ct 
718 -212 710 -209 703 -204 ct 695 -198 690 -190 687 -181 ct 682 -165 680 -149 680 -131 ct 
680 0 l  637 0 l  p ef
794 0 m  794 -250 l  832 -250 l  832 -215 l  840 -227 850 -237 863 -245 ct 
876 -252 891 -256 908 -256 ct 926 -256 942 -252 953 -244 ct 965 -237 974 -226 979 -212 ct 
998 -241 1024 -256 1056 -256 ct 1081 -256 1100 -249 1113 -235 ct 1127 -222 1133 -200 1133 -172 ct 
1133 0 l  1091 0 l  1091 -158 l  1091 -175 1090 -187 1087 -194 ct 1084 -202 1079 -208 1072 -212 ct 
1065 -217 1056 -219 1046 -219 ct 1029 -219 1014 -213 1003 -202 ct 991 -190 985 -171 985 -145 ct 
985 0 l  943 0 l  943 -163 l  943 -182 939 -196 932 -205 ct 925 -215 914 -219 898 -219 ct 
886 -219 875 -216 865 -210 ct 855 -204 848 -194 843 -182 ct 839 -170 836 -153 836 -130 ct 
836 0 l  794 0 l  p ef
1358 -80 m  1402 -75 l  1395 -49 1382 -29 1364 -15 ct 1345 -1 1321 6 1292 6 ct 
1255 6 1226 -5 1205 -28 ct 1183 -50 1173 -82 1173 -123 ct 1173 -165 1184 -198 1205 -221 ct 
1227 -244 1255 -256 1290 -256 ct 1323 -256 1351 -244 1372 -222 ct 1393 -199 1404 -167 1404 -125 ct 
1404 -123 1404 -119 1403 -114 ct 1217 -114 l  1218 -87 1226 -65 1240 -51 ct 
1254 -36 1271 -29 1292 -29 ct 1308 -29 1321 -33 1332 -41 ct 1343 -49 1352 -62 1358 -80 ct 
p
1219 -149 m  1359 -149 l  1357 -170 1352 -186 1343 -196 ct 1329 -213 1312 -221 1290 -221 ct 
1271 -221 1254 -214 1241 -201 ct 1228 -188 1220 -171 1219 -149 ct p ef
1614 -91 m  1656 -86 l  1651 -57 1640 -35 1621 -18 ct 1602 -2 1579 6 1552 6 ct 
1518 6 1490 -5 1469 -28 ct 1448 -50 1438 -82 1438 -124 ct 1438 -151 1442 -175 1451 -195 ct 
1460 -215 1474 -231 1492 -241 ct 1511 -251 1530 -256 1552 -256 ct 1579 -256 1601 -249 1619 -235 ct 
1636 -221 1647 -202 1652 -177 ct 1611 -170 l  1607 -187 1600 -200 1590 -208 ct 
1580 -217 1568 -221 1554 -221 ct 1532 -221 1515 -213 1502 -198 ct 1488 -183 1482 -158 1482 -125 ct 
1482 -92 1488 -67 1501 -52 ct 1514 -37 1531 -29 1551 -29 ct 1568 -29 1582 -34 1593 -44 ct 
1604 -54 1611 -70 1614 -91 ct p ef
1781 -38 m  1787 -1 l  1775 2 1764 3 1755 3 ct 1739 3 1727 1 1719 -4 ct 1710 -9 1704 -16 1701 -24 ct 
1697 -32 1696 -48 1696 -74 ct 1696 -218 l  1664 -218 l  1664 -251 l  1696 -251 l 
1696 -313 l  1738 -338 l  1738 -251 l  1781 -251 l  1781 -218 l  1738 -218 l 
1738 -71 l  1738 -59 1739 -51 1740 -48 ct 1742 -44 1744 -42 1747 -40 ct 1751 -38 1756 -37 1762 -37 ct 
1767 -37 1773 -37 1781 -38 ct p ef
1820 -297 m  1820 -346 l  1863 -346 l  1863 -297 l  1820 -297 l  p
1820 0 m  1820 -250 l  1863 -250 l  1863 0 l  1820 0 l  p ef
1924 0 m  1924 -250 l  1962 -250 l  1962 -215 l  1980 -242 2007 -256 2042 -256 ct 
2057 -256 2071 -253 2083 -248 ct 2096 -242 2106 -235 2112 -227 ct 2118 -218 2123 -207 2125 -195 ct 
2127 -187 2127 -174 2127 -154 ct 2127 0 l  2085 0 l  2085 -152 l  2085 -170 2083 -182 2080 -191 ct 
2077 -200 2071 -206 2062 -212 ct 2054 -217 2044 -219 2033 -219 ct 2015 -219 1999 -213 1986 -202 ct 
1973 -191 1966 -169 1966 -137 ct 1966 0 l  1924 0 l  p ef
pom
1 lw 9332 14400 m  9340 15152 l  ps
9346 15643 m  9508 15127 l  9173 15131 l  9346 15643 l  p ef
7321 6343 m  7321 8080 l  ps
7321 8571 m  7488 8057 l  7153 8057 l  7321 8571 l  p ef
11344 10514 m  11334 9056 l  ps
11331 8565 m  11166 9080 l  11502 9078 l  11331 8565 l  p ef
11344 12229 m  11296 15166 l  ps
11288 15657 m  11464 15146 l  11130 15141 l  11288 15657 l  p ef
8494 5600 m  12152 5600 l  12152 3801 l  14769 3801 l  ps
15249 3801 m  14746 3630 l  14746 3973 l  15249 3801 l  p ef
pum
8884 5414 t
32 0 m  32 -346 l  75 -346 l  75 -149 l  175 -250 l  230 -250 l  134 -157 l 
240 0 l  187 0 l  104 -128 l  75 -99 l  75 0 l  32 0 l  p ef
315 0 m  238 -251 l  282 -251 l  322 -106 l  337 -52 l  338 -55 342 -72 350 -104 ct 
390 -251 l  433 -251 l  471 -105 l  483 -57 l  498 -106 l  541 -251 l 
582 -251 l  504 0 l  460 0 l  420 -150 l  410 -193 l  359 0 l  315 0 l 
p ef
570 96 m  570 65 l  851 65 l  851 96 l  570 96 l  p ef
1037 1 m  1037 -31 l  1021 -6 998 6 967 6 ct 947 6 929 0 912 -11 ct 895 -22 883 -37 873 -57 ct 
864 -76 860 -99 860 -125 ct 860 -150 864 -172 872 -193 ct 880 -213 893 -229 910 -240 ct 
926 -251 945 -256 965 -256 ct 981 -256 994 -253 1006 -246 ct 1018 -240 1027 -232 1035 -222 ct 
1035 -345 l  1077 -345 l  1077 1 l  1037 1 l  p
903 -125 m  903 -93 910 -69 923 -53 ct 937 -37 953 -29 971 -29 ct 990 -29 1006 -36 1019 -52 ct 
1032 -67 1038 -90 1038 -121 ct 1038 -156 1031 -181 1018 -197 ct 1005 -213 989 -221 969 -221 ct 
951 -221 935 -213 922 -198 ct 909 -182 903 -158 903 -125 ct p ef
1311 -80 m  1355 -75 l  1348 -49 1335 -29 1317 -15 ct 1298 -1 1274 6 1245 6 ct 
1208 6 1179 -5 1158 -28 ct 1136 -50 1126 -82 1126 -123 ct 1126 -165 1137 -198 1158 -221 ct 
1180 -244 1208 -256 1243 -256 ct 1276 -256 1304 -244 1325 -222 ct 1346 -199 1357 -167 1357 -125 ct 
1357 -123 1357 -119 1356 -114 ct 1170 -114 l  1171 -87 1179 -65 1193 -51 ct 
1207 -36 1224 -29 1245 -29 ct 1261 -29 1274 -33 1285 -41 ct 1296 -49 1305 -62 1311 -80 ct 
p
1172 -149 m  1312 -149 l  1310 -170 1305 -186 1296 -196 ct 1282 -213 1265 -221 1243 -221 ct 
1224 -221 1207 -214 1194 -201 ct 1181 -188 1173 -171 1172 -149 ct p ef
1567 -31 m  1552 -17 1536 -8 1522 -2 ct 1507 3 1492 6 1475 6 ct 1448 6 1426 -1 1412 -14 ct 
1397 -28 1389 -45 1389 -66 ct 1389 -78 1392 -89 1398 -99 ct 1403 -110 1411 -118 1420 -124 ct 
1429 -130 1439 -135 1450 -138 ct 1459 -140 1471 -142 1488 -144 ct 1522 -148 1548 -153 1564 -159 ct 
1564 -165 1564 -168 1564 -170 ct 1564 -187 1560 -199 1552 -206 ct 1541 -216 1525 -221 1504 -221 ct 
1484 -221 1469 -217 1459 -210 ct 1450 -203 1443 -191 1438 -173 ct 1397 -179 l 
1401 -197 1407 -211 1415 -222 ct 1424 -233 1437 -241 1453 -247 ct 1469 -253 1488 -256 1510 -256 ct 
1531 -256 1548 -253 1562 -248 ct 1575 -243 1585 -237 1591 -229 ct 1598 -222 1602 -212 1605 -201 ct 
1606 -193 1607 -180 1607 -161 ct 1607 -105 l  1607 -65 1608 -40 1609 -30 ct 
1611 -19 1615 -9 1620 0 ct 1576 0 l  1571 -8 1569 -19 1567 -31 ct p
1564 -125 m  1548 -119 1525 -114 1494 -109 ct 1477 -107 1465 -104 1457 -101 ct 
1450 -98 1445 -93 1441 -87 ct 1437 -81 1435 -74 1435 -67 ct 1435 -56 1439 -46 1448 -39 ct 
1456 -31 1469 -27 1485 -27 ct 1502 -27 1516 -31 1529 -38 ct 1542 -45 1551 -55 1557 -67 ct 
1561 -77 1564 -91 1564 -110 ct 1564 -125 l  p ef
1762 -38 m  1768 -1 l  1756 2 1745 3 1736 3 ct 1720 3 1708 1 1700 -4 ct 1691 -9 1685 -16 1682 -24 ct 
1678 -32 1677 -48 1677 -74 ct 1677 -218 l  1645 -218 l  1645 -251 l  1677 -251 l 
1677 -313 l  1719 -338 l  1719 -251 l  1762 -251 l  1762 -218 l  1719 -218 l 
1719 -71 l  1719 -59 1720 -51 1721 -48 ct 1723 -44 1725 -42 1728 -40 ct 1732 -38 1737 -37 1743 -37 ct 
1748 -37 1754 -37 1762 -38 ct p ef
1801 0 m  1801 -346 l  1843 -346 l  1843 -222 l  1863 -245 1888 -256 1918 -256 ct 
1937 -256 1953 -252 1967 -245 ct 1980 -238 1990 -228 1996 -215 ct 2002 -202 2005 -183 2005 -159 ct 
2005 0 l  1962 0 l  1962 -159 l  1962 -180 1958 -195 1949 -205 ct 1939 -215 1926 -219 1910 -219 ct 
1897 -219 1885 -216 1874 -210 ct 1863 -203 1855 -194 1850 -183 ct 1846 -172 1843 -157 1843 -137 ct 
1843 0 l  1801 0 l  p ef
2027 96 m  2027 65 l  2308 65 l  2308 96 l  2027 96 l  p ef
2331 -297 m  2331 -346 l  2374 -346 l  2374 -297 l  2331 -297 l  p
2331 0 m  2331 -250 l  2374 -250 l  2374 0 l  2331 0 l  p ef
2505 0 m  2410 -251 l  2455 -251 l  2509 -100 l  2515 -84 2520 -67 2525 -50 ct 
2529 -63 2534 -79 2541 -98 ct 2596 -251 l  2640 -251 l  2545 0 l  2505 0 l 
p ef
2843 -80 m  2887 -75 l  2880 -49 2867 -29 2849 -15 ct 2830 -1 2806 6 2777 6 ct 
2740 6 2711 -5 2690 -28 ct 2668 -50 2658 -82 2658 -123 ct 2658 -165 2669 -198 2690 -221 ct 
2712 -244 2740 -256 2775 -256 ct 2808 -256 2836 -244 2857 -222 ct 2878 -199 2889 -167 2889 -125 ct 
2889 -123 2889 -119 2888 -114 ct 2702 -114 l  2703 -87 2711 -65 2725 -51 ct 
2739 -36 2756 -29 2777 -29 ct 2793 -29 2806 -33 2817 -41 ct 2828 -49 2837 -62 2843 -80 ct 
p
2704 -149 m  2844 -149 l  2842 -170 2837 -186 2828 -196 ct 2814 -213 2797 -221 2775 -221 ct 
2756 -221 2739 -214 2726 -201 ct 2713 -188 2705 -171 2704 -149 ct p ef
2936 0 m  2936 -250 l  2975 -250 l  2975 -212 l  2984 -230 2993 -242 3002 -248 ct 
3010 -253 3019 -256 3029 -256 ct 3043 -256 3058 -251 3072 -242 ct 3058 -203 l 
3047 -209 3037 -212 3027 -212 ct 3017 -212 3009 -209 3002 -204 ct 2994 -198 2989 -190 2986 -181 ct 
2981 -165 2979 -149 2979 -131 ct 2979 0 l  2936 0 l  p ef
pom
gr
gs
1118 1143 m 20117 1143 l 20117 17142 l 1118 17142 l 1118 1143 l eoclip newpath
gr
gr
0 16000 t 
pom
count op_count sub {pop} repeat countdictstack dict_count sub {end} repeat b4_inc_state restore
%%PageTrailer
%%Trailer
%%EOF
